<?xml version="1.0" encoding="UTF-8" standalone="no"?>
<!-- Created with Inkscape (http://www.inkscape.org/) -->

<svg
   xmlns:dc="http://purl.org/dc/elements/1.1/"
   xmlns:cc="http://creativecommons.org/ns#"
   xmlns:rdf="http://www.w3.org/1999/02/22-rdf-syntax-ns#"
   xmlns:svg="http://www.w3.org/2000/svg"
   xmlns="http://www.w3.org/2000/svg"
   xmlns:xlink="http://www.w3.org/1999/xlink"
   xmlns:sodipodi="http://sodipodi.sourceforge.net/DTD/sodipodi-0.dtd"
   xmlns:inkscape="http://www.inkscape.org/namespaces/inkscape"
   width="1000"
   height="1000"
   viewBox="0 0 264.58333 264.58334"
   version="1.1"
   id="svg8"
   inkscape:version="0.92.3 (2405546, 2018-03-11)"
   sodipodi:docname="banner-geral.svg"
   inkscape:export-filename="/mnt/9d9b0caf-1067-4ff2-89a8-e3d1a5989aeb/roberto/Documentos/Eventos/2020/FLISOL BRAGANCA/MATERIAL GRAFICO/DIVERSOS/banner-geral.png"
   inkscape:export-xdpi="103.68"
   inkscape:export-ydpi="103.68"
   enable-background="new">
  <defs
     id="defs2">
    <radialGradient
       id="rect5602_1_-1-0"
       cx="39.507702"
       cy="136.8791"
       r="629.53729"
       gradientTransform="matrix(0.36767629,0,0,-0.26488582,115.90193,189.91301)"
       gradientUnits="userSpaceOnUse">
      <stop
         offset="0"
         style="stop-color:#ED6D14"
         id="stop6328-3-0" />
      <stop
         offset="1"
         style="stop-color:#AF1917"
         id="stop6330-0-2" />
    </radialGradient>
    <linearGradient
       id="linearGradient11737">
      <stop
         style="stop-color:#ffffff;stop-opacity:0;"
         offset="0"
         id="stop11739" />
      <stop
         id="stop11741"
         offset="0.7044031"
         style="stop-color:#0046af;stop-opacity:0;" />
      <stop
         id="stop11743"
         offset="0.86842364"
         style="stop-color:#0044ab;stop-opacity:0.42352942;" />
      <stop
         style="stop-color:#003996;stop-opacity:0.64999998;"
         offset="0.95386213"
         id="stop11745" />
      <stop
         style="stop-color:#002c80;stop-opacity:1;"
         offset="1"
         id="stop11747" />
    </linearGradient>
    <linearGradient
       id="linearGradient11729">
      <stop
         id="stop11731"
         offset="0"
         style="stop-color:#5bcaff;stop-opacity:1;" />
      <stop
         id="stop11733"
         offset="1"
         style="stop-color:#0071de;stop-opacity:1;" />
    </linearGradient>
    <linearGradient
       id="linearGradient5073">
      <stop
         id="stop5075"
         offset="0"
         style="stop-color:#ffffff;stop-opacity:1;" />
      <stop
         id="stop5077"
         offset="1"
         style="stop-color:#ffffff;stop-opacity:0;" />
    </linearGradient>
    <filter
       inkscape:collect="always"
       style="color-interpolation-filters:sRGB"
       id="filter32021"
       x="-0.04830623"
       width="1.0966125"
       y="-0.052683495"
       height="1.1053669">
      <feGaussianBlur
         inkscape:collect="always"
         stdDeviation="1.3566"
         id="feGaussianBlur32023" />
    </filter>
    <radialGradient
       id="SVGID_7_-6"
       cx="41.2771"
       cy="77.994598"
       r="115.1427"
       gradientTransform="matrix(0.59465161,-0.00803016,0.00779185,0.57698869,27.560967,38.49588)"
       gradientUnits="userSpaceOnUse">
      <stop
         offset="0"
         style="stop-color:#F9B233"
         id="stop8653-6" />
      <stop
         offset="1"
         style="stop-color:#AF1917"
         id="stop8655-1" />
    </radialGradient>
    <radialGradient
       id="rect5602_1_-1-0-5"
       cx="39.507702"
       cy="136.8791"
       r="629.53729"
       gradientTransform="matrix(0.36767629,0,0,-0.26488583,115.90192,157.49637)"
       gradientUnits="userSpaceOnUse">
      <stop
         offset="0"
         style="stop-color:#ED6D14"
         id="stop6328-3-0-6" />
      <stop
         offset="1"
         style="stop-color:#AF1917"
         id="stop6330-0-2-5" />
    </radialGradient>
    <filter
       inkscape:collect="always"
       style="color-interpolation-filters:sRGB"
       id="filter31850"
       x="-0.084295951"
       width="1.1685919"
       y="-0.11197349"
       height="1.223947">
      <feGaussianBlur
         inkscape:collect="always"
         stdDeviation="8.3413016"
         id="feGaussianBlur31852" />
    </filter>
    <filter
       inkscape:collect="always"
       style="color-interpolation-filters:sRGB"
       id="filter5204">
      <feBlend
         inkscape:collect="always"
         mode="multiply"
         in2="BackgroundImage"
         id="feBlend5206" />
    </filter>
    <filter
       inkscape:collect="always"
       id="filter14506-80-6-61"
       style="color-interpolation-filters:sRGB">
      <feGaussianBlur
         inkscape:collect="always"
         stdDeviation="0.70957443"
         id="feGaussianBlur14508-15-9-2" />
    </filter>
    <radialGradient
       r="68.636078"
       fy="170.44995"
       fx="339.39481"
       cy="170.44995"
       cx="339.39481"
       gradientUnits="userSpaceOnUse"
       id="radialGradient20235"
       xlink:href="#linearGradient11737"
       inkscape:collect="always"
       gradientTransform="matrix(0.68715852,0,0,0.68715852,599.61371,681.9423)" />
    <radialGradient
       r="68.136078"
       fy="131.75188"
       fx="360.3381"
       cy="131.75188"
       cx="360.3381"
       gradientTransform="matrix(2.0322283,0,0,2.0322283,-350.33294,-138.65768)"
       gradientUnits="userSpaceOnUse"
       id="radialGradient20237"
       xlink:href="#linearGradient11729"
       inkscape:collect="always" />
    <filter
       height="1.3200001"
       y="-0.16"
       width="1.3200001"
       x="-0.16"
       id="filter4645"
       inkscape:collect="always">
      <feGaussianBlur
         id="feGaussianBlur4647"
         stdDeviation="9.0848104"
         inkscape:collect="always" />
    </filter>
    <filter
       inkscape:collect="always"
       id="filter15293">
      <feGaussianBlur
         inkscape:collect="always"
         stdDeviation="2.6999294"
         id="feGaussianBlur15295" />
    </filter>
    <linearGradient
       inkscape:collect="always"
       xlink:href="#linearGradient5073"
       id="linearGradient741"
       gradientUnits="userSpaceOnUse"
       gradientTransform="matrix(-0.63593482,-0.37693419,-0.22248174,0.57997513,1235.4192,915.11076)"
       x1="530.65643"
       y1="92.872658"
       x2="571.87354"
       y2="138.7977" />
  </defs>
  <sodipodi:namedview
     id="base"
     pagecolor="#ffffff"
     bordercolor="#666666"
     borderopacity="1.0"
     inkscape:pageopacity="0.0"
     inkscape:pageshadow="2"
     inkscape:zoom="0.46850121"
     inkscape:cx="478.37825"
     inkscape:cy="514.4062"
     inkscape:document-units="mm"
     inkscape:current-layer="layer1"
     showgrid="false"
     units="px"
     inkscape:snap-others="true"
     inkscape:snap-nodes="false"
     inkscape:window-width="1366"
     inkscape:window-height="695"
     inkscape:window-x="0"
     inkscape:window-y="28"
     inkscape:window-maximized="1"
     showguides="true" />
  <metadata
     id="metadata5">
    <rdf:RDF>
      <cc:Work
         rdf:about="">
        <dc:format>image/svg+xml</dc:format>
        <dc:type
           rdf:resource="http://purl.org/dc/dcmitype/StillImage" />
        <dc:title />
      </cc:Work>
    </rdf:RDF>
  </metadata>
  <g
     inkscape:groupmode="layer"
     id="layer2"
     inkscape:label="BG">
    <rect
       id="rect5602-3"
       x="-5.0862632e-006"
       y="-3.3839596e-014"
       class="st0"
       width="264.58337"
       height="264.58337"
       style="fill:url(#rect5602_1_-1-0-5);stroke-width:0.42072514"
       inkscape:export-xdpi="103.68"
       inkscape:export-ydpi="103.68" />
    <g
       transform="matrix(0.56150177,0,0,0.56150177,-88.591318,-398.1754)"
       style="enable-background:new"
       id="g478">
      <g
         id="g66581"
         transform="matrix(0.87877451,0,0,0.87877451,168.18511,422.13806)">
        <g
           transform="matrix(0.4459748,0,0,0.4459748,547.07787,921.78732)"
           id="g6845_1_">
          <g
             transform="translate(-1.9999988,247.45081)"
             id="g6848_1_">
            <g
               id="path6850_1_">
              <g
                 id="g24832">
                <path
                   id="path24834"
                   d="m -1004.7,-1162.6 c -6.2,0 -11.2,-5 -11.2,-11.2 V -1297 c 0,-24.9 20.3,-45.2 45.2,-45.2 h 21.3 c 6.2,0 11.2,5 11.2,11.2 0,6.2 -5,11.2 -11.2,11.2 h -21.3 c -12.6,0 -22.8,10.2 -22.8,22.8 v 123.2 c 0,6.2 -5,11.2 -11.2,11.2 z"
                   class="st1"
                   inkscape:connector-curvature="0"
                   style="fill:#ffffff" />
              </g>
            </g>
            <g
               id="path6852_1_">
              <g
                 id="g24837">
                <path
                   id="path24839"
                   d="m -957.4,-1245.5 h -58.9 c -6.2,0 -11.2,-5 -11.2,-11.2 0,-6.2 5,-11.2 11.2,-11.2 h 58.9 c 6.2,0 11.2,5 11.2,11.2 0,6.2 -5,11.2 -11.2,11.2 z"
                   class="st1"
                   inkscape:connector-curvature="0"
                   style="fill:#ffffff" />
              </g>
            </g>
          </g>
          <g
             id="path6854_1_">
            <g
               id="g24842">
              <path
                 id="path24844"
                 d="m -837.3,-915.2 c -6.2,0 -11.2,-5 -11.2,-11.2 v -157.8 c 0,-6.2 5,-11.2 11.2,-11.2 6.2,0 11.2,5 11.2,11.2 v 157.8 c 0,6.2 -5.1,11.2 -11.2,11.2 z"
                 class="st1"
                 inkscape:connector-curvature="0"
                 style="fill:#ffffff" />
            </g>
          </g>
          <g
             id="path6856_1_">
            <g
               id="g24847">
              <path
                 id="path24849"
                 d="m -758.9,-915.2 h -37.5 c -6.2,0 -11.2,-5 -11.2,-11.2 0,-6.2 5,-11.2 11.2,-11.2 h 37.5 c 13.5,0 24.5,-10.9 24.5,-24.3 v -7.1 c 0,-6.6 -2.5,-12.7 -7.2,-17.3 -4.6,-4.5 -10.6,-7 -17.1,-7 -0.2,0 -0.4,0 -0.6,0 -1,0.2 -2.2,0.3 -3.5,0.4 -1.3,0 -3.3,0 -6.3,0.1 -25.9,0 -47,-21 -47,-46.7 v -7.1 c 0,-25.8 21,-46.7 46.9,-46.7 h 37.5 c 6.2,0 11.2,5 11.2,11.2 0,6.2 -5,11.2 -11.2,11.2 h -37.5 c -13.5,0 -24.5,10.9 -24.5,24.3 v 7.1 c 0,13.4 11,24.3 24.5,24.3 0.1,0 0.3,0 0.4,0 1,-0.2 2.2,-0.3 3.5,-0.4 1.3,0 3.3,0 6.3,-0.1 0.1,0 0.2,0 0.3,0 12.4,0 24.1,4.8 32.9,13.6 8.9,8.8 13.8,20.6 13.8,33.2 v 7.1 c 0,25.6 -21,46.6 -46.9,46.6 z"
                 class="st1"
                 inkscape:connector-curvature="0"
                 style="fill:#ffffff" />
            </g>
          </g>
          <g
             id="rect6858_1_">
            <g
               id="g24852">
              <path
                 id="path24854"
                 d="m -640.2,-915.2 h -31.4 c -18.4,0 -33.4,-15 -33.4,-33.4 v -66.6 c 0,-18.4 15,-33.4 33.4,-33.4 h 31.4 c 18.4,0 33.4,15 33.4,33.4 v 66.6 c 0,18.5 -15,33.4 -33.4,33.4 z m -31.4,-110.9 c -6,0 -11,4.9 -11,11 v 66.6 c 0,6 4.9,11 11,11 h 31.4 c 6,0 11,-4.9 11,-11 v -66.6 c 0,-6 -4.9,-11 -11,-11 z"
                 class="st1"
                 inkscape:connector-curvature="0"
                 style="fill:#ffffff" />
            </g>
          </g>
          <g
             id="path6860_1_">
            <g
               id="g24857">
              <path
                 id="path24859"
                 d="M -866.8,-915.2 H -888 c -24.9,0 -45.2,-20.3 -45.2,-45.2 v -123.2 c 0,-6.2 5,-11.2 11.2,-11.2 6.2,0 11.2,5 11.2,11.2 v 123.2 c 0,12.6 10.2,22.8 22.8,22.8 h 21.3 c 6.2,0 11.2,5 11.2,11.2 0,6.2 -5.1,11.2 -11.3,11.2 z"
                 class="st1"
                 inkscape:connector-curvature="0"
                 style="fill:#ffffff" />
            </g>
          </g>
          <g
             id="path6862_1_">
            <g
               id="g24862">
              <path
                 id="path24864"
                 d="M -531.7,-915.2 H -553 c -24.9,0 -45.2,-20.3 -45.2,-45.2 v -123.2 c 0,-6.2 5,-11.2 11.2,-11.2 6.2,0 11.2,5 11.2,11.2 v 123.2 c 0,12.6 10.2,22.8 22.8,22.8 h 21.3 c 6.2,0 11.2,5 11.2,11.2 0,6.2 -5,11.2 -11.2,11.2 z"
                 class="st1"
                 inkscape:connector-curvature="0"
                 style="fill:#ffffff" />
            </g>
          </g>
        </g>
        <g
           transform="matrix(0.47136053,0,0,0.47136053,521.78012,1169.1906)"
           id="g6864_1_">
          <g
             id="path6866_1_">
            <g
               id="g24868">
              <path
                 id="path24870"
                 d="m -294.1,-1453.3 77.8,77.3 45.6,-42.1 -38.1,-36.1 -25.4,24.8 17.8,17 21.6,-16.4 1.9,1.9 -18.4,19.1 c -2.8,2.8 -5.8,3.7 -9.3,0.6 l -18.5,-17.8 c -2.2,-2.8 -2.7,-5.5 -0.9,-8.1 0,0 11.2,-14.9 26.5,-28.3 4.8,-3.5 8.9,-2.6 12.7,0.9 l 40.6,35.4 c 3.7,4.3 2.9,9.7 -1,13.7 l -46.7,49.8 c -4.4,5.1 -14.7,4.8 -19.1,-0.2 l -81.4,-77.9 z"
                 class="st1"
                 sodipodi:nodetypes="cccccccccccccccccccc"
                 inkscape:connector-curvature="0"
                 style="fill:#ffffff" />
            </g>
          </g>
          <g
             id="path6868_1_">
            <g
               id="g24873">
              <path
                 id="path24875"
                 d="m -336.4,-1498.7 -77.8,-77.3 -45.6,42.1 38.1,36.1 25.4,-24.8 -17.8,-17 -21.6,16.4 -1.9,-1.9 18.4,-19.1 c 2.8,-2.8 5.8,-3.7 9.3,-0.6 l 18.5,17.8 c 2.2,2.8 2.7,5.5 0.9,8.1 0,0 -11.2,14.9 -26.5,28.3 -4.8,3.5 -8.9,2.6 -12.7,-0.9 l -40.6,-35.4 c -3.7,-4.3 -2.9,-9.7 1,-13.7 l 46.7,-49.8 c 4.4,-5.1 14.7,-4.8 19.1,0.2 l 81.4,77.9 z"
                 class="st1"
                 sodipodi:nodetypes="cccccccccccccccccccc"
                 inkscape:connector-curvature="0"
                 style="fill:#ffffff" />
            </g>
          </g>
          <g
             id="path6870_1_">
            <g
               id="g24878">
              <path
                 id="path24880"
                 d="m -292.6,-1497.2 77.3,-77.8 -42.1,-45.6 -36.1,38.1 24.8,25.4 17,-17.8 -16.4,-21.6 1.9,-1.9 19.1,18.4 c 2.8,2.8 3.7,5.8 0.6,9.3 l -17.8,18.5 c -2.8,2.2 -5.5,2.7 -8.1,0.9 0,0 -14.9,-11.2 -28.3,-26.5 -3.5,-4.8 -2.6,-8.9 0.9,-12.7 l 35.4,-40.6 c 4.3,-3.7 9.7,-2.9 13.7,1 l 49.8,46.7 c 5.1,4.4 4.8,14.7 -0.2,19.1 l -77.9,81.4 z"
                 class="st1"
                 sodipodi:nodetypes="cccccccccccccccccccc"
                 inkscape:connector-curvature="0"
                 style="fill:#ffffff" />
            </g>
          </g>
          <g
             id="path6872_1_">
            <g
               id="g24883">
              <path
                 id="path24885"
                 d="m -337.9,-1454.8 -77.3,77.8 42.1,45.6 36.1,-38.1 -24.8,-25.4 -17,17.8 16.4,21.6 -1.9,1.9 -19.1,-18.4 c -2.8,-2.8 -3.7,-5.8 -0.6,-9.3 l 17.8,-18.5 c 2.8,-2.2 5.5,-2.7 8.1,-0.9 0,0 14.9,11.2 28.3,26.5 3.5,4.8 2.6,8.9 -0.9,12.7 l -35.3,40.5 c -4.3,3.7 -9.7,2.9 -13.7,-1 l -49.8,-46.7 c -5.1,-4.4 -4.8,-14.7 0.2,-19.1 l 77.9,-81.4 z"
                 class="st1"
                 sodipodi:nodetypes="cccccccccccccccccccc"
                 inkscape:connector-curvature="0"
                 style="fill:#ffffff" />
            </g>
          </g>
          <g
             transform="matrix(1.0923337,0.25861982,-0.25861982,1.0923337,160.90403,65.72318)"
             id="g6874_1_">
            <g
               id="path6876_1_">
              <g
                 id="g24889">
                <path
                   id="path24891"
                   d="m -716.2,-1184.4 22.9,68.7 c 0,0 16.2,-7.5 17.1,2.7 0.9,10.2 -22.4,9 -22.4,9 l -21.9,-79.9 z"
                   class="st1"
                   sodipodi:nodetypes="ccsccc"
                   inkscape:connector-curvature="0"
                   style="fill:#ffffff" />
              </g>
            </g>
            <g
               id="ellipse6878_1_">
              <g
                 id="g24894">
                <path
                   transform="matrix(-0.2049,0.9788,-0.9788,-0.2049,-1969.4539,-714.7151)"
                   style="fill:#ffffff"
                   d="m -687.20002,-1157.3 a 7.1999998,10.5 0 0 1 -7.2,10.5 7.1999998,10.5 0 0 1 -7.2,-10.5 7.1999998,10.5 0 0 1 7.2,-10.5 7.1999998,10.5 0 0 1 7.2,10.5 z"
                   id="ellipse24896"
                   inkscape:connector-curvature="0" />
              </g>
            </g>
            <g
               id="ellipse6880_1_">
              <g
                 id="g24899">
                <path
                   transform="matrix(-0.2049,0.9788,-0.9788,-0.2049,-1938.2141,-705.644)"
                   style="fill:#ffffff"
                   d="m -675.3,-1140.1 a 7.1999998,10.5 0 0 1 -7.2,10.5 7.1999998,10.5 0 0 1 -7.2,-10.5 7.1999998,10.5 0 0 1 7.2,-10.5 7.1999998,10.5 0 0 1 7.2,10.5 z"
                   id="ellipse24901"
                   inkscape:connector-curvature="0" />
              </g>
            </g>
            <g
               id="path6882_1_">
              <g
                 id="g24904">
                <path
                   id="path24906"
                   d="m -742.2,-1293.1 -22.9,-68.7 c 0,0 -16.2,7.5 -17.1,-2.7 -0.9,-10.2 22.4,-9 22.4,-9 l 21.9,79.9 z"
                   class="st1"
                   sodipodi:nodetypes="ccsccc"
                   inkscape:connector-curvature="0"
                   style="fill:#ffffff" />
              </g>
            </g>
            <g
               id="ellipse6884_1_">
              <g
                 id="g24909">
                <path
                   transform="matrix(-0.2049,0.9788,-0.9788,-0.2049,-2212.728,-842.939)"
                   style="fill:#ffffff"
                   d="m -756.8,-1320.2 a 7.1999998,10.5 0 0 1 -7.2,10.5 7.1999998,10.5 0 0 1 -7.2,-10.5 7.1999998,10.5 0 0 1 7.2,-10.5 7.1999998,10.5 0 0 1 7.2,10.5 z"
                   id="ellipse24911"
                   inkscape:connector-curvature="0" />
              </g>
            </g>
            <g
               id="ellipse6886_1_">
              <g
                 id="g24914">
                <path
                   transform="matrix(-0.2049,0.9788,-0.9788,-0.2049,-2243.9678,-852.0101)"
                   style="fill:#ffffff"
                   d="m -768.70002,-1337.5 a 7.1999998,10.5 0 0 1 -7.2,10.5 7.1999998,10.5 0 0 1 -7.2,-10.5 7.1999998,10.5 0 0 1 7.2,-10.5 7.1999998,10.5 0 0 1 7.2,10.5 z"
                   id="ellipse24916"
                   inkscape:connector-curvature="0" />
              </g>
            </g>
            <g
               id="path6888_1_">
              <g
                 id="g24919">
                <path
                   id="path24921"
                   d="m -674.9,-1251.8 68.7,-22.9 c 0,0 -7.5,-16.2 2.7,-17.1 10.2,-0.8 9,22.4 9,22.4 l -79.9,21.9 z"
                   class="st1"
                   sodipodi:nodetypes="ccsccc"
                   inkscape:connector-curvature="0"
                   style="fill:#ffffff" />
              </g>
            </g>
            <g
               id="ellipse6890_1_">
              <g
                 id="g24924">
                <path
                   transform="matrix(-0.2049,0.9788,-0.9788,-0.2049,-2026.9791,-900.4641)"
                   style="fill:#ffffff"
                   d="m -637.20001,-1273.6 a 10.5,7.1999998 0 0 1 -10.5,7.2 10.5,7.1999998 0 0 1 -10.5,-7.2 10.5,7.1999998 0 0 1 10.5,-7.2 10.5,7.1999998 0 0 1 10.5,7.2 z"
                   id="ellipse24926"
                   inkscape:connector-curvature="0" />
              </g>
            </g>
            <g
               id="ellipse6892_1_">
              <g
                 id="g24929">
                <path
                   transform="matrix(-0.2049,0.9788,-0.9788,-0.2049,-2017.908,-931.7039)"
                   style="fill:#ffffff"
                   d="m -620,-1285.5 a 10.5,7.1999998 0 0 1 -10.5,7.2 10.5,7.1999998 0 0 1 -10.5,-7.2 10.5,7.1999998 0 0 1 10.5,-7.2 10.5,7.1999998 0 0 1 10.5,7.2 z"
                   id="ellipse24931"
                   inkscape:connector-curvature="0" />
              </g>
            </g>
            <g
               id="path6894_1_">
              <g
                 id="g24934">
                <path
                   id="path24936"
                   d="m -783.5,-1225.8 -68.7,22.9 c 0,0 7.5,16.2 -2.7,17.1 -10.2,0.9 -9,-22.4 -9,-22.4 l 79.9,-21.9 z"
                   class="st1"
                   sodipodi:nodetypes="ccsccc"
                   inkscape:connector-curvature="0"
                   style="fill:#ffffff" />
              </g>
            </g>
            <g
               id="ellipse6896_1_">
              <g
                 id="g24939">
                <path
                   transform="matrix(-0.2049,0.9788,-0.9788,-0.2049,-2155.2029,-657.1899)"
                   style="fill:#ffffff"
                   d="m -800.20001,-1204 a 10.5,7.1999998 0 0 1 -10.5,7.2 10.5,7.1999998 0 0 1 -10.5,-7.2 10.5,7.1999998 0 0 1 10.5,-7.2 10.5,7.1999998 0 0 1 10.5,7.2 z"
                   id="ellipse24941"
                   inkscape:connector-curvature="0" />
              </g>
            </g>
            <g
               id="ellipse6898_1_">
              <g
                 id="g24944">
                <path
                   transform="matrix(-0.2049,0.9788,-0.9788,-0.2049,-2164.2742,-625.9502)"
                   style="fill:#ffffff"
                   d="m -817.40002,-1192.1 a 10.5,7.1999998 0 0 1 -10.5,7.2 10.5,7.1999998 0 0 1 -10.5,-7.2 10.5,7.1999998 0 0 1 10.5,-7.2 10.5,7.1999998 0 0 1 10.5,7.2 z"
                   id="ellipse24946"
                   inkscape:connector-curvature="0" />
              </g>
            </g>
          </g>
        </g>
        <g
           id="g26872"
           class="st421"
           style="enable-background:new"
           transform="matrix(1.2178779,0,0,1.2178779,12.168645,313.88276)">
          <g
             id="g26874">
            <path
               id="path26876"
               d="m 60.7,187.9 v -10.2 h 6.9 v 1.2 H 62 v 3.2 h 4.8 v 1.2 H 62 v 4.7 h -1.3 z"
               class="st1"
               inkscape:connector-curvature="0"
               style="fill:#ffffff" />
          </g>
          <g
             id="g26878">
            <path
               id="path26880"
               d="m 74.3,185.6 1.3,0.2 c -0.2,0.8 -0.6,1.3 -1.1,1.8 -0.6,0.4 -1.3,0.6 -2.1,0.6 -1.1,0 -1.9,-0.3 -2.6,-1 -0.6,-0.7 -1,-1.6 -1,-2.8 0,-1.2 0.3,-2.2 1,-2.9 0.6,-0.7 1.5,-1 2.5,-1 1,0 1.8,0.3 2.4,1 0.6,0.7 0.9,1.6 0.9,2.8 0,0.1 0,0.2 0,0.3 h -5.5 c 0,0.8 0.3,1.4 0.7,1.9 0.4,0.4 0.9,0.6 1.6,0.6 0.5,0 0.9,-0.1 1.2,-0.4 0.3,-0.2 0.5,-0.6 0.7,-1.1 z m -4.1,-2.1 h 4.1 c -0.1,-0.6 -0.2,-1.1 -0.5,-1.4 -0.4,-0.5 -0.9,-0.7 -1.6,-0.7 -0.6,0 -1.1,0.2 -1.5,0.6 -0.3,0.4 -0.5,0.9 -0.5,1.5 z"
               class="st1"
               inkscape:connector-curvature="0"
               style="fill:#ffffff" />
          </g>
          <g
             id="g26882">
            <path
               id="path26884"
               d="m 76.7,185.7 1.2,-0.2 c 0.1,0.5 0.3,0.9 0.6,1.1 0.3,0.3 0.8,0.4 1.3,0.4 0.6,0 1,-0.1 1.3,-0.4 0.3,-0.2 0.4,-0.5 0.4,-0.8 0,-0.3 -0.1,-0.5 -0.4,-0.7 -0.2,-0.1 -0.6,-0.3 -1.3,-0.4 -0.9,-0.2 -1.6,-0.4 -1.9,-0.6 -0.4,-0.2 -0.6,-0.4 -0.8,-0.7 -0.2,-0.3 -0.3,-0.6 -0.3,-1 0,-0.3 0.1,-0.6 0.2,-0.9 0.2,-0.3 0.4,-0.5 0.6,-0.7 0.2,-0.1 0.5,-0.3 0.8,-0.4 0.3,-0.1 0.7,-0.2 1.1,-0.2 0.6,0 1.1,0.1 1.5,0.3 0.4,0.2 0.8,0.4 1,0.7 0.2,0.3 0.4,0.7 0.4,1.1 l -1.2,0.2 c -0.1,-0.4 -0.2,-0.7 -0.5,-0.9 -0.3,-0.2 -0.6,-0.3 -1.1,-0.3 -0.6,0 -1,0.1 -1.2,0.3 -0.2,0.2 -0.4,0.4 -0.4,0.7 0,0.2 0.1,0.3 0.2,0.4 0.1,0.1 0.3,0.2 0.5,0.3 0.1,0 0.5,0.2 1.1,0.3 0.9,0.2 1.5,0.4 1.9,0.6 0.4,0.2 0.6,0.4 0.8,0.7 0.2,0.3 0.3,0.6 0.3,1.1 0,0.4 -0.1,0.8 -0.4,1.2 -0.2,0.4 -0.6,0.7 -1.1,0.9 -0.5,0.2 -1,0.3 -1.6,0.3 -1,0 -1.7,-0.2 -2.2,-0.6 -0.5,-0.4 -0.7,-1 -0.8,-1.8 z"
               class="st1"
               inkscape:connector-curvature="0"
               style="fill:#ffffff" />
          </g>
          <g
             id="g26886">
            <path
               id="path26888"
               d="m 87.1,186.8 0.2,1.1 c -0.4,0.1 -0.7,0.1 -0.9,0.1 -0.5,0 -0.8,-0.1 -1.1,-0.2 -0.3,-0.1 -0.4,-0.3 -0.5,-0.6 -0.1,-0.2 -0.2,-0.7 -0.2,-1.5 v -4.3 h -0.9 v -1 h 0.9 v -1.8 l 1.2,-0.8 v 2.6 h 1.3 v 1 h -1.3 v 4.3 c 0,0.4 0,0.6 0.1,0.7 0,0.1 0.1,0.2 0.2,0.2 0.1,0.1 0.2,0.1 0.4,0.1 0.2,0.2 0.3,0.2 0.6,0.1 z"
               class="st1"
               inkscape:connector-curvature="0"
               style="fill:#ffffff" />
          </g>
          <g
             id="g26890">
            <path
               id="path26892"
               d="m 88.3,179.2 v -1.4 h 1.3 v 1.4 z m 0,8.7 v -7.4 h 1.3 v 7.4 z"
               class="st1"
               inkscape:connector-curvature="0"
               style="fill:#ffffff" />
          </g>
          <g
             id="g26894">
            <path
               id="path26896"
               d="m 93.5,187.9 -2.8,-7.4 H 92 l 1.6,4.4 c 0.2,0.5 0.3,1 0.5,1.5 0.1,-0.4 0.3,-0.9 0.5,-1.4 l 1.6,-4.5 h 1.3 l -2.8,7.4 z"
               class="st1"
               inkscape:connector-curvature="0"
               style="fill:#ffffff" />
          </g>
          <g
             id="g26898">
            <path
               id="path26900"
               d="m 103.5,187 c -0.5,0.4 -0.9,0.7 -1.3,0.8 -0.4,0.2 -0.9,0.2 -1.4,0.2 -0.8,0 -1.4,-0.2 -1.9,-0.6 -0.4,-0.4 -0.7,-0.9 -0.7,-1.5 0,-0.4 0.1,-0.7 0.2,-1 0.2,-0.3 0.4,-0.5 0.6,-0.7 0.3,-0.2 0.6,-0.3 0.9,-0.4 0.2,-0.1 0.6,-0.1 1.1,-0.2 1,-0.1 1.8,-0.3 2.2,-0.4 0,-0.2 0,-0.3 0,-0.3 0,-0.5 -0.1,-0.9 -0.4,-1.1 -0.3,-0.3 -0.8,-0.4 -1.4,-0.4 -0.6,0 -1,0.1 -1.3,0.3 -0.3,0.2 -0.5,0.6 -0.6,1.1 l -1.2,-0.2 c 0.1,-0.5 0.3,-1 0.6,-1.3 0.3,-0.3 0.6,-0.6 1.1,-0.7 0.5,-0.2 1,-0.3 1.7,-0.3 0.6,0 1.1,0.1 1.5,0.2 0.4,0.1 0.7,0.3 0.9,0.6 0.2,0.3 0.3,0.5 0.4,0.9 0,0.2 0.1,0.6 0.1,1.2 v 1.7 c 0,1.2 0,1.9 0.1,2.2 0.1,0.3 0.2,0.6 0.3,0.9 h -1.3 c -0.1,-0.3 -0.2,-0.6 -0.2,-1 z m -0.1,-2.8 c -0.5,0.2 -1.1,0.3 -2.1,0.5 -0.5,0.1 -0.9,0.2 -1.1,0.3 -0.2,0.1 -0.4,0.2 -0.5,0.4 -0.1,0.2 -0.2,0.4 -0.2,0.6 0,0.3 0.1,0.6 0.4,0.8 0.3,0.2 0.6,0.3 1.1,0.3 0.5,0 0.9,-0.1 1.3,-0.3 0.4,-0.2 0.7,-0.5 0.8,-0.9 0.1,-0.3 0.2,-0.7 0.2,-1.3 v -0.4 z"
               class="st1"
               inkscape:connector-curvature="0"
               style="fill:#ffffff" />
          </g>
          <g
             id="g26902">
            <path
               id="path26904"
               d="m 106.6,187.9 v -10.2 h 1.3 v 10.2 z"
               class="st1"
               inkscape:connector-curvature="0"
               style="fill:#ffffff" />
          </g>
          <g
             id="g26906">
            <path
               id="path26908"
               d="m 113.8,187.9 v -10.2 h 1.4 v 9 h 5 v 1.2 z"
               class="st1"
               inkscape:connector-curvature="0"
               style="fill:#ffffff" />
          </g>
          <g
             id="g26910">
            <path
               id="path26912"
               d="m 126.5,187 c -0.5,0.4 -0.9,0.7 -1.3,0.8 -0.4,0.2 -0.9,0.2 -1.4,0.2 -0.8,0 -1.4,-0.2 -1.9,-0.6 -0.4,-0.4 -0.7,-0.9 -0.7,-1.5 0,-0.4 0.1,-0.7 0.2,-1 0.2,-0.3 0.4,-0.5 0.6,-0.7 0.3,-0.2 0.6,-0.3 0.9,-0.4 0.2,-0.1 0.6,-0.1 1.1,-0.2 1,-0.1 1.8,-0.3 2.2,-0.4 0,-0.2 0,-0.3 0,-0.3 0,-0.5 -0.1,-0.9 -0.4,-1.1 -0.3,-0.3 -0.8,-0.4 -1.4,-0.4 -0.6,0 -1,0.1 -1.3,0.3 -0.3,0.2 -0.5,0.6 -0.6,1.1 l -1.2,-0.2 c 0.1,-0.5 0.3,-1 0.6,-1.3 0.3,-0.3 0.6,-0.6 1.1,-0.7 0.5,-0.2 1,-0.3 1.7,-0.3 0.6,0 1.1,0.1 1.5,0.2 0.4,0.1 0.7,0.3 0.9,0.6 0.2,0.3 0.3,0.5 0.4,0.9 0,0.2 0.1,0.6 0.1,1.2 v 1.7 c 0,1.2 0,1.9 0.1,2.2 0.1,0.3 0.2,0.6 0.3,0.9 h -1.3 c -0.1,-0.3 -0.1,-0.6 -0.2,-1 z m -0.1,-2.8 c -0.5,0.2 -1.1,0.3 -2.1,0.5 -0.5,0.1 -0.9,0.2 -1.1,0.3 -0.2,0.1 -0.4,0.2 -0.5,0.4 -0.1,0.2 -0.2,0.4 -0.2,0.6 0,0.3 0.1,0.6 0.4,0.8 0.3,0.2 0.6,0.3 1.1,0.3 0.5,0 0.9,-0.1 1.3,-0.3 0.4,-0.2 0.7,-0.5 0.8,-0.9 0.1,-0.3 0.2,-0.7 0.2,-1.3 v -0.4 z"
               class="st1"
               inkscape:connector-curvature="0"
               style="fill:#ffffff" />
          </g>
          <g
             id="g26914">
            <path
               id="path26916"
               d="m 132.4,186.8 0.2,1.1 c -0.4,0.1 -0.7,0.1 -0.9,0.1 -0.5,0 -0.8,-0.1 -1.1,-0.2 -0.3,-0.1 -0.4,-0.3 -0.5,-0.6 -0.1,-0.2 -0.2,-0.7 -0.2,-1.5 v -4.3 H 129 v -1 h 0.9 v -1.8 l 1.2,-0.8 v 2.6 h 1.3 v 1 h -1.3 v 4.3 c 0,0.4 0,0.6 0.1,0.7 0,0.1 0.1,0.2 0.2,0.2 0.1,0.1 0.2,0.1 0.4,0.1 0.2,0.2 0.4,0.2 0.6,0.1 z"
               class="st1"
               inkscape:connector-curvature="0"
               style="fill:#ffffff" />
          </g>
          <g
             id="g26918">
            <path
               id="path26920"
               d="m 133.6,179.2 v -1.4 h 1.3 v 1.4 z m 0,8.7 v -7.4 h 1.3 v 7.4 z"
               class="st1"
               inkscape:connector-curvature="0"
               style="fill:#ffffff" />
          </g>
          <g
             id="g26922">
            <path
               id="path26924"
               d="m 136.8,187.9 v -7.4 h 1.1 v 1.1 c 0.5,-0.8 1.3,-1.2 2.4,-1.2 0.4,0 0.9,0.1 1.2,0.2 0.4,0.2 0.7,0.4 0.8,0.6 0.2,0.3 0.3,0.6 0.4,0.9 0,0.2 0.1,0.6 0.1,1.2 v 4.6 h -1.3 v -4.5 c 0,-0.5 0,-0.9 -0.1,-1.1 -0.1,-0.2 -0.3,-0.5 -0.5,-0.6 -0.2,-0.2 -0.5,-0.2 -0.9,-0.2 -0.5,0 -1,0.2 -1.4,0.5 -0.4,0.3 -0.6,1 -0.6,1.9 v 4.1 h -1.2 z"
               class="st1"
               inkscape:connector-curvature="0"
               style="fill:#ffffff" />
          </g>
          <g
             id="g26926">
            <path
               id="path26928"
               d="m 144.3,184.2 c 0,-1.4 0.4,-2.4 1.1,-3.1 0.6,-0.5 1.4,-0.8 2.3,-0.8 1,0 1.9,0.3 2.5,1 0.6,0.7 1,1.6 1,2.8 0,1 -0.1,1.7 -0.4,2.3 -0.3,0.5 -0.7,1 -1.2,1.3 -0.5,0.3 -1.1,0.5 -1.8,0.5 -1,0 -1.9,-0.3 -2.5,-1 -0.7,-0.8 -1,-1.7 -1,-3 z m 1.3,0 c 0,0.9 0.2,1.7 0.6,2.1 0.4,0.5 0.9,0.7 1.6,0.7 0.6,0 1.1,-0.2 1.6,-0.7 0.4,-0.5 0.6,-1.2 0.6,-2.2 0,-0.9 -0.2,-1.6 -0.6,-2.1 -0.4,-0.5 -0.9,-0.7 -1.6,-0.7 -0.6,0 -1.1,0.2 -1.6,0.7 -0.4,0.6 -0.6,1.3 -0.6,2.2 z"
               class="st1"
               inkscape:connector-curvature="0"
               style="fill:#ffffff" />
          </g>
          <g
             id="g26930">
            <path
               id="path26932"
               d="m 152.2,184.9 v -1.3 h 3.9 v 1.3 z"
               class="st1"
               inkscape:connector-curvature="0"
               style="fill:#ffffff" />
          </g>
          <g
             id="g26934">
            <path
               id="path26936"
               d="m 162.3,187 c -0.5,0.4 -0.9,0.7 -1.3,0.8 -0.4,0.2 -0.9,0.2 -1.4,0.2 -0.8,0 -1.4,-0.2 -1.9,-0.6 -0.4,-0.4 -0.7,-0.9 -0.7,-1.5 0,-0.4 0.1,-0.7 0.2,-1 0.2,-0.3 0.4,-0.5 0.6,-0.7 0.3,-0.2 0.6,-0.3 0.9,-0.4 0.2,-0.1 0.6,-0.1 1.1,-0.2 1,-0.1 1.8,-0.3 2.2,-0.4 0,-0.2 0,-0.3 0,-0.3 0,-0.5 -0.1,-0.9 -0.4,-1.1 -0.3,-0.3 -0.8,-0.4 -1.4,-0.4 -0.6,0 -1,0.1 -1.3,0.3 -0.3,0.2 -0.5,0.6 -0.6,1.1 l -1.2,-0.2 c 0.1,-0.5 0.3,-1 0.6,-1.3 0.3,-0.3 0.6,-0.6 1.1,-0.7 0.5,-0.2 1,-0.3 1.7,-0.3 0.6,0 1.1,0.1 1.5,0.2 0.4,0.1 0.7,0.3 0.9,0.6 0.2,0.2 0.3,0.5 0.4,0.9 0,0.2 0.1,0.6 0.1,1.2 v 1.7 c 0,1.2 0,1.9 0.1,2.2 0.1,0.3 0.2,0.6 0.3,0.9 h -1.3 c -0.1,-0.3 -0.2,-0.6 -0.2,-1 z m -0.1,-2.8 c -0.5,0.2 -1.1,0.3 -2.1,0.5 -0.5,0.1 -0.9,0.2 -1.1,0.3 -0.2,0.1 -0.4,0.2 -0.5,0.4 -0.1,0.2 -0.2,0.4 -0.2,0.6 0,0.3 0.1,0.6 0.4,0.8 0.3,0.2 0.6,0.3 1.1,0.3 0.5,0 0.9,-0.1 1.3,-0.3 0.4,-0.2 0.7,-0.5 0.8,-0.9 0.1,-0.3 0.2,-0.7 0.2,-1.3 v -0.4 z"
               class="st1"
               inkscape:connector-curvature="0"
               style="fill:#ffffff" />
          </g>
          <g
             id="g26938">
            <path
               id="path26940"
               d="m 165.4,187.9 v -7.4 h 1.1 v 1 c 0.2,-0.4 0.5,-0.7 0.9,-0.9 0.4,-0.2 0.8,-0.3 1.3,-0.3 0.5,0 1,0.1 1.4,0.3 0.4,0.2 0.6,0.5 0.7,1 0.6,-0.9 1.4,-1.3 2.3,-1.3 0.7,0 1.3,0.2 1.7,0.6 0.4,0.4 0.6,1 0.6,1.9 v 5.1 h -1.2 v -4.7 c 0,-0.5 0,-0.9 -0.1,-1.1 -0.1,-0.2 -0.2,-0.4 -0.4,-0.5 -0.2,-0.1 -0.5,-0.2 -0.8,-0.2 -0.5,0 -1,0.2 -1.3,0.5 -0.3,0.3 -0.5,0.9 -0.5,1.7 v 4.3 h -1.3 v -4.8 c 0,-0.6 -0.1,-1 -0.3,-1.3 -0.2,-0.3 -0.5,-0.4 -1,-0.4 -0.4,0 -0.7,0.1 -1,0.3 -0.3,0.2 -0.5,0.5 -0.7,0.8 -0.1,0.4 -0.2,0.9 -0.2,1.6 v 3.8 z"
               class="st1"
               inkscape:connector-curvature="0"
               style="fill:#ffffff" />
          </g>
          <g
             id="g26942">
            <path
               id="path26944"
               d="m 182.4,185.6 1.3,0.2 c -0.2,0.8 -0.6,1.3 -1.1,1.8 -0.6,0.4 -1.3,0.6 -2.1,0.6 -1.1,0 -1.9,-0.3 -2.6,-1 -0.6,-0.7 -1,-1.6 -1,-2.8 0,-1.2 0.3,-2.2 1,-2.9 0.6,-0.7 1.5,-1 2.5,-1 1,0 1.8,0.3 2.4,1 0.6,0.7 0.9,1.6 0.9,2.8 0,0.1 0,0.2 0,0.3 h -5.5 c 0,0.8 0.3,1.4 0.7,1.9 0.4,0.4 0.9,0.6 1.6,0.6 0.5,0 0.9,-0.1 1.2,-0.4 0.2,-0.2 0.5,-0.6 0.7,-1.1 z m -4.1,-2.1 h 4.1 c -0.1,-0.6 -0.2,-1.1 -0.5,-1.4 -0.4,-0.5 -0.9,-0.7 -1.6,-0.7 -0.6,0 -1.1,0.2 -1.5,0.6 -0.3,0.4 -0.5,0.9 -0.5,1.5 z"
               class="st1"
               inkscape:connector-curvature="0"
               style="fill:#ffffff" />
          </g>
          <g
             id="g26946">
            <path
               id="path26948"
               d="m 185.3,187.9 v -7.4 h 1.1 v 1.1 c 0.3,-0.5 0.6,-0.9 0.8,-1 0.2,-0.2 0.5,-0.3 0.8,-0.3 0.4,0 0.9,0.1 1.3,0.4 l -0.4,1.2 c -0.3,-0.2 -0.6,-0.3 -0.9,-0.3 -0.3,0 -0.5,0.1 -0.7,0.2 -0.2,0.2 -0.4,0.4 -0.5,0.7 -0.1,0.4 -0.2,0.9 -0.2,1.5 v 3.9 z"
               class="st1"
               inkscape:connector-curvature="0"
               style="fill:#ffffff" />
          </g>
          <g
             id="g26950">
            <path
               id="path26952"
               d="m 190,179.2 v -1.4 h 1.3 v 1.4 z m 0,8.7 v -7.4 h 1.3 v 7.4 z"
               class="st1"
               inkscape:connector-curvature="0"
               style="fill:#ffffff" />
          </g>
          <g
             id="g26954">
            <path
               id="path26956"
               d="m 198.1,185.2 1.2,0.2 c -0.1,0.9 -0.5,1.5 -1,2 -0.6,0.5 -1.2,0.7 -2,0.7 -1,0 -1.8,-0.3 -2.4,-1 -0.6,-0.7 -0.9,-1.6 -0.9,-2.9 0,-0.8 0.1,-1.5 0.4,-2.1 0.3,-0.6 0.7,-1.1 1.2,-1.4 0.5,-0.3 1.1,-0.5 1.8,-0.5 0.8,0 1.5,0.2 2,0.6 0.5,0.4 0.8,1 1,1.7 l -1.2,0.2 c -0.1,-0.5 -0.3,-0.9 -0.6,-1.1 -0.3,-0.3 -0.7,-0.4 -1.1,-0.4 -0.6,0 -1.1,0.2 -1.5,0.7 -0.4,0.5 -0.6,1.2 -0.6,2.2 0,1 0.2,1.7 0.6,2.2 0.4,0.5 0.9,0.7 1.5,0.7 0.5,0 0.9,-0.2 1.2,-0.5 0.1,-0.2 0.3,-0.6 0.4,-1.3 z"
               class="st1"
               inkscape:connector-curvature="0"
               style="fill:#ffffff" />
          </g>
          <g
             id="g26958">
            <path
               id="path26960"
               d="m 205.2,187 c -0.5,0.4 -0.9,0.7 -1.3,0.8 -0.4,0.2 -0.9,0.2 -1.4,0.2 -0.8,0 -1.4,-0.2 -1.9,-0.6 -0.4,-0.4 -0.7,-0.9 -0.7,-1.5 0,-0.4 0.1,-0.7 0.2,-1 0.2,-0.3 0.4,-0.5 0.6,-0.7 0.3,-0.2 0.6,-0.3 0.9,-0.4 0.2,-0.1 0.6,-0.1 1.1,-0.2 1,-0.1 1.8,-0.3 2.2,-0.4 0,-0.2 0,-0.3 0,-0.3 0,-0.5 -0.1,-0.9 -0.4,-1.1 -0.3,-0.3 -0.8,-0.4 -1.4,-0.4 -0.6,0 -1,0.1 -1.3,0.3 -0.3,0.2 -0.5,0.6 -0.6,1.1 l -1.2,-0.2 c 0.1,-0.5 0.3,-1 0.6,-1.3 0.3,-0.3 0.6,-0.6 1.1,-0.7 0.5,-0.2 1,-0.3 1.7,-0.3 0.6,0 1.1,0.1 1.5,0.2 0.4,0.1 0.7,0.3 0.9,0.6 0.2,0.2 0.3,0.5 0.4,0.9 0,0.2 0.1,0.6 0.1,1.2 v 1.7 c 0,1.2 0,1.9 0.1,2.2 0.1,0.3 0.2,0.6 0.3,0.9 h -1.3 c -0.1,-0.3 -0.2,-0.6 -0.2,-1 z m -0.1,-2.8 c -0.5,0.2 -1.1,0.3 -2.1,0.5 -0.5,0.1 -0.9,0.2 -1.1,0.3 -0.2,0.1 -0.4,0.2 -0.5,0.4 -0.1,0.2 -0.2,0.4 -0.2,0.6 0,0.3 0.1,0.6 0.4,0.8 0.3,0.2 0.6,0.3 1.1,0.3 0.5,0 0.9,-0.1 1.3,-0.3 0.4,-0.2 0.7,-0.5 0.8,-0.9 0.1,-0.3 0.2,-0.7 0.2,-1.3 v -0.4 z"
               class="st1"
               inkscape:connector-curvature="0"
               style="fill:#ffffff" />
          </g>
          <g
             id="g26962">
            <path
               id="path26964"
               d="m 208.3,187.9 v -7.4 h 1.1 v 1.1 c 0.5,-0.8 1.3,-1.2 2.4,-1.2 0.4,0 0.9,0.1 1.2,0.2 0.4,0.2 0.7,0.4 0.8,0.6 0.2,0.3 0.3,0.6 0.4,0.9 0,0.2 0.1,0.6 0.1,1.2 v 4.6 H 213 v -4.5 c 0,-0.5 0,-0.9 -0.1,-1.1 -0.1,-0.2 -0.3,-0.5 -0.5,-0.6 -0.2,-0.2 -0.5,-0.2 -0.9,-0.2 -0.5,0 -1,0.2 -1.4,0.5 -0.4,0.3 -0.6,1 -0.6,1.9 v 4.1 h -1.2 z"
               class="st1"
               inkscape:connector-curvature="0"
               style="fill:#ffffff" />
          </g>
          <g
             id="g26966">
            <path
               id="path26968"
               d="m 215.8,184.2 c 0,-1.4 0.4,-2.4 1.1,-3.1 0.6,-0.5 1.4,-0.8 2.3,-0.8 1,0 1.9,0.3 2.5,1 0.6,0.7 1,1.6 1,2.8 0,1 -0.1,1.7 -0.4,2.3 -0.3,0.5 -0.7,1 -1.2,1.3 -0.5,0.3 -1.1,0.5 -1.8,0.5 -1,0 -1.9,-0.3 -2.5,-1 -0.7,-0.8 -1,-1.7 -1,-3 z m 1.3,0 c 0,0.9 0.2,1.7 0.6,2.1 0.4,0.5 0.9,0.7 1.6,0.7 0.6,0 1.1,-0.2 1.6,-0.7 0.4,-0.5 0.6,-1.2 0.6,-2.2 0,-0.9 -0.2,-1.6 -0.6,-2.1 -0.4,-0.5 -0.9,-0.7 -1.6,-0.7 -0.6,0 -1.1,0.2 -1.6,0.7 -0.4,0.6 -0.6,1.3 -0.6,2.2 z"
               class="st1"
               inkscape:connector-curvature="0"
               style="fill:#ffffff" />
          </g>
          <g
             id="g26970">
            <path
               id="path26972"
               d="M 233,187.9 V 187 c -0.5,0.7 -1.2,1.1 -2.1,1.1 -0.6,0 -1.1,-0.2 -1.6,-0.5 -0.5,-0.3 -0.9,-0.8 -1.2,-1.4 -0.3,-0.6 -0.4,-1.3 -0.4,-2 0,-0.7 0.1,-1.4 0.4,-2 0.2,-0.6 0.6,-1.1 1.1,-1.4 0.5,-0.3 1,-0.5 1.7,-0.5 0.4,0 0.8,0.1 1.2,0.3 0.3,0.2 0.6,0.4 0.9,0.7 v -3.7 h 1.2 v 10.2 H 233 Z m -4,-3.7 c 0,0.9 0.2,1.7 0.6,2.1 0.4,0.5 0.9,0.7 1.4,0.7 0.5,0 1,-0.2 1.4,-0.7 0.4,-0.4 0.6,-1.1 0.6,-2.1 0,-1 -0.2,-1.8 -0.6,-2.2 -0.4,-0.5 -0.9,-0.7 -1.4,-0.7 -0.6,0 -1,0.2 -1.4,0.7 -0.4,0.5 -0.6,1.3 -0.6,2.2 z"
               class="st1"
               inkscape:connector-curvature="0"
               style="fill:#ffffff" />
          </g>
          <g
             id="g26974">
            <path
               id="path26976"
               d="m 241.2,185.6 1.3,0.2 c -0.2,0.8 -0.6,1.3 -1.1,1.8 -0.6,0.4 -1.3,0.6 -2.1,0.6 -1.1,0 -1.9,-0.3 -2.6,-1 -0.6,-0.7 -1,-1.6 -1,-2.8 0,-1.2 0.3,-2.2 1,-2.9 0.6,-0.7 1.5,-1 2.5,-1 1,0 1.8,0.3 2.4,1 0.6,0.7 0.9,1.6 0.9,2.8 0,0.1 0,0.2 0,0.3 H 237 c 0,0.8 0.3,1.4 0.7,1.9 0.4,0.4 0.9,0.6 1.6,0.6 0.5,0 0.9,-0.1 1.2,-0.4 0.3,-0.2 0.5,-0.6 0.7,-1.1 z m -4.1,-2.1 h 4.1 c -0.1,-0.6 -0.2,-1.1 -0.5,-1.4 -0.4,-0.5 -0.9,-0.7 -1.6,-0.7 -0.6,0 -1.1,0.2 -1.5,0.6 -0.2,0.4 -0.5,0.9 -0.5,1.5 z"
               class="st1"
               inkscape:connector-curvature="0"
               style="fill:#ffffff" />
          </g>
        </g>
        <g
           id="g26978"
           class="st421"
           style="enable-background:new"
           transform="matrix(1.2178779,0,0,1.2178779,12.168645,313.88276)">
          <g
             id="g26980">
            <path
               id="path26982"
               d="M 64,207.2 V 197 h 1.4 v 10.2 z"
               class="st1"
               inkscape:connector-curvature="0"
               style="fill:#ffffff" />
          </g>
          <g
             id="g26984">
            <path
               id="path26986"
               d="m 67.6,207.2 v -7.4 h 1.1 v 1.1 c 0.5,-0.8 1.3,-1.2 2.4,-1.2 0.4,0 0.9,0.1 1.2,0.2 0.4,0.2 0.7,0.4 0.8,0.6 0.2,0.3 0.3,0.6 0.4,0.9 0,0.2 0.1,0.6 0.1,1.2 v 4.6 h -1.3 v -4.5 c 0,-0.5 0,-0.9 -0.1,-1.1 -0.1,-0.2 -0.3,-0.5 -0.5,-0.6 -0.2,-0.2 -0.5,-0.2 -0.9,-0.2 -0.5,0 -1,0.2 -1.4,0.5 -0.4,0.3 -0.6,1 -0.6,1.9 v 4.1 h -1.2 z"
               class="st1"
               inkscape:connector-curvature="0"
               style="fill:#ffffff" />
          </g>
          <g
             id="g26988">
            <path
               id="path26990"
               d="m 75.1,205 1.2,-0.2 c 0.1,0.5 0.3,0.9 0.6,1.1 0.3,0.3 0.8,0.4 1.3,0.4 0.6,0 1,-0.1 1.3,-0.4 0.3,-0.2 0.4,-0.5 0.4,-0.8 0,-0.3 -0.1,-0.5 -0.4,-0.7 -0.2,-0.1 -0.6,-0.3 -1.3,-0.4 -0.9,-0.2 -1.6,-0.4 -1.9,-0.6 -0.4,-0.2 -0.6,-0.4 -0.8,-0.7 -0.2,-0.3 -0.3,-0.6 -0.3,-1 0,-0.3 0.1,-0.6 0.2,-0.9 0.2,-0.3 0.4,-0.5 0.6,-0.7 0.2,-0.1 0.5,-0.3 0.8,-0.4 0.3,-0.1 0.7,-0.2 1.1,-0.2 0.6,0 1.1,0.1 1.5,0.3 0.4,0.2 0.8,0.4 1,0.7 0.2,0.3 0.4,0.7 0.4,1.1 l -1.2,0.2 c -0.1,-0.4 -0.2,-0.7 -0.5,-0.9 -0.3,-0.2 -0.6,-0.3 -1.1,-0.3 -0.6,0 -1,0.1 -1.2,0.3 -0.2,0.2 -0.4,0.4 -0.4,0.7 0,0.2 0.1,0.3 0.2,0.4 0.1,0.1 0.3,0.2 0.5,0.3 0.1,0 0.5,0.2 1.1,0.3 0.9,0.2 1.5,0.4 1.9,0.6 0.4,0.2 0.6,0.4 0.8,0.7 0.2,0.3 0.3,0.6 0.3,1.1 0,0.4 -0.1,0.8 -0.4,1.2 -0.2,0.4 -0.6,0.7 -1.1,0.9 -0.5,0.2 -1,0.3 -1.6,0.3 -1,0 -1.7,-0.2 -2.2,-0.6 -0.5,-0.4 -0.7,-1 -0.8,-1.8 z"
               class="st1"
               inkscape:connector-curvature="0"
               style="fill:#ffffff" />
          </g>
          <g
             id="g26992">
            <path
               id="path26994"
               d="m 85.5,206.1 0.2,1.1 c -0.4,0.1 -0.7,0.1 -0.9,0.1 -0.5,0 -0.8,-0.1 -1.1,-0.2 -0.3,-0.1 -0.4,-0.3 -0.5,-0.6 C 83.1,206.3 83,205.8 83,205 v -4.3 h -1 v -1 h 1 V 198 l 1.2,-0.8 v 2.6 h 1.3 v 1 h -1.3 v 4.3 c 0,0.4 0,0.6 0.1,0.7 0,0.1 0.1,0.2 0.2,0.2 0.1,0.1 0.2,0.1 0.4,0.1 0.2,0.1 0.4,0 0.6,0 z"
               class="st1"
               inkscape:connector-curvature="0"
               style="fill:#ffffff" />
          </g>
          <g
             id="g26996">
            <path
               id="path26998"
               d="m 91.5,206.3 c -0.5,0.4 -0.9,0.7 -1.3,0.8 -0.4,0.2 -0.9,0.2 -1.4,0.2 -0.8,0 -1.4,-0.2 -1.9,-0.6 -0.4,-0.4 -0.7,-0.9 -0.7,-1.5 0,-0.4 0.1,-0.7 0.2,-1 0.1,-0.3 0.4,-0.5 0.6,-0.7 0.3,-0.2 0.6,-0.3 0.9,-0.4 0.2,-0.1 0.6,-0.1 1.1,-0.2 1,-0.1 1.8,-0.3 2.2,-0.4 0,-0.2 0,-0.3 0,-0.3 0,-0.5 -0.1,-0.9 -0.4,-1.1 -0.3,-0.3 -0.8,-0.4 -1.4,-0.4 -0.6,0 -1,0.1 -1.3,0.3 -0.3,0.2 -0.5,0.6 -0.6,1.1 l -1.2,-0.2 c 0.1,-0.5 0.3,-1 0.6,-1.3 0.3,-0.3 0.6,-0.6 1.1,-0.7 0.5,-0.2 1,-0.3 1.7,-0.3 0.6,0 1.1,0.1 1.5,0.2 0.4,0.1 0.7,0.3 0.9,0.6 0.2,0.2 0.3,0.5 0.4,0.9 0,0.2 0.1,0.6 0.1,1.2 v 1.7 c 0,1.2 0,1.9 0.1,2.2 0.1,0.3 0.2,0.6 0.3,0.9 h -1.3 c 0,-0.3 -0.1,-0.6 -0.2,-1 z m -0.1,-2.8 c -0.5,0.2 -1.1,0.3 -2.1,0.5 -0.5,0.1 -0.9,0.2 -1.1,0.3 -0.2,0.1 -0.4,0.2 -0.5,0.4 -0.1,0.2 -0.2,0.4 -0.2,0.6 0,0.3 0.1,0.6 0.4,0.8 0.3,0.2 0.6,0.3 1.1,0.3 0.5,0 0.9,-0.1 1.3,-0.3 0.4,-0.2 0.7,-0.5 0.8,-0.9 0.1,-0.3 0.2,-0.7 0.2,-1.3 v -0.4 z"
               class="st1"
               inkscape:connector-curvature="0"
               style="fill:#ffffff" />
          </g>
          <g
             id="g27000">
            <path
               id="path27002"
               d="M 94.6,207.2 V 197 h 1.3 v 10.2 z"
               class="st1"
               inkscape:connector-curvature="0"
               style="fill:#ffffff" />
          </g>
          <g
             id="g27004">
            <path
               id="path27006"
               d="m 102.7,206.3 c -0.5,0.4 -0.9,0.7 -1.3,0.8 -0.4,0.2 -0.9,0.2 -1.4,0.2 -0.8,0 -1.4,-0.2 -1.9,-0.6 -0.4,-0.4 -0.7,-0.9 -0.7,-1.5 0,-0.4 0.1,-0.7 0.2,-1 0.2,-0.3 0.4,-0.5 0.6,-0.7 0.3,-0.2 0.6,-0.3 0.9,-0.4 0.2,-0.1 0.6,-0.1 1.1,-0.2 1,-0.1 1.8,-0.3 2.2,-0.4 0,-0.2 0,-0.3 0,-0.3 0,-0.5 -0.1,-0.9 -0.4,-1.1 -0.3,-0.3 -0.8,-0.4 -1.4,-0.4 -0.6,0 -1,0.1 -1.3,0.3 -0.3,0.2 -0.5,0.6 -0.6,1.1 l -1.2,-0.2 c 0.1,-0.5 0.3,-1 0.6,-1.3 0.3,-0.3 0.6,-0.6 1.1,-0.7 0.5,-0.2 1,-0.3 1.7,-0.3 0.6,0 1.1,0.1 1.5,0.2 0.4,0.1 0.7,0.3 0.9,0.6 0.2,0.3 0.3,0.5 0.4,0.9 0,0.2 0.1,0.6 0.1,1.2 v 1.7 c 0,1.2 0,1.9 0.1,2.2 0.1,0.3 0.2,0.6 0.3,0.9 h -1.3 c -0.1,-0.3 -0.2,-0.6 -0.2,-1 z m -0.1,-2.8 c -0.5,0.2 -1.1,0.3 -2.1,0.5 -0.5,0.1 -0.9,0.2 -1.1,0.3 -0.2,0.1 -0.4,0.2 -0.5,0.4 -0.1,0.2 -0.2,0.4 -0.2,0.6 0,0.3 0.1,0.6 0.4,0.8 0.3,0.2 0.6,0.3 1.1,0.3 0.5,0 0.9,-0.1 1.3,-0.3 0.4,-0.2 0.7,-0.5 0.8,-0.9 0.1,-0.3 0.2,-0.7 0.2,-1.3 v -0.4 z"
               class="st1"
               inkscape:connector-curvature="0"
               style="fill:#ffffff" />
          </g>
          <g
             id="g27008">
            <path
               id="path27010"
               d="m 110.6,204.5 1.2,0.2 c -0.1,0.9 -0.5,1.5 -1,2 -0.6,0.5 -1.2,0.7 -2,0.7 -1,0 -1.8,-0.3 -2.4,-1 -0.6,-0.7 -0.9,-1.6 -0.9,-2.9 0,-0.8 0.1,-1.5 0.4,-2.1 0.3,-0.6 0.7,-1.1 1.2,-1.4 0.5,-0.3 1.1,-0.5 1.8,-0.5 0.8,0 1.5,0.2 2,0.6 0.5,0.4 0.8,1 1,1.7 l -1.2,0.2 c -0.1,-0.5 -0.3,-0.9 -0.6,-1.1 -0.3,-0.3 -0.7,-0.4 -1.1,-0.4 -0.6,0 -1.1,0.2 -1.5,0.7 -0.4,0.5 -0.6,1.2 -0.6,2.2 0,1 0.2,1.7 0.6,2.2 0.4,0.5 0.9,0.7 1.5,0.7 0.5,0 0.9,-0.2 1.2,-0.5 0.1,-0.2 0.3,-0.7 0.4,-1.3 z m -2.9,3.7 0.4,-1.2 h 0.9 l -0.2,0.7 c 0.4,0 0.7,0.2 0.9,0.4 0.2,0.2 0.3,0.4 0.3,0.7 0,0.3 -0.2,0.7 -0.5,0.9 -0.3,0.3 -0.8,0.4 -1.5,0.4 -0.4,0 -0.7,0 -1,-0.1 l 0.1,-0.8 c 0.3,0 0.5,0 0.7,0 0.4,0 0.7,-0.1 0.9,-0.2 0.1,-0.1 0.2,-0.2 0.2,-0.3 0,-0.1 0,-0.2 -0.1,-0.2 -0.1,-0.1 -0.2,-0.1 -0.3,-0.2 -0.2,-0.1 -0.4,-0.1 -0.8,-0.1 z"
               class="st1"
               inkscape:connector-curvature="0"
               style="fill:#ffffff" />
          </g>
          <g
             id="g27012">
            <path
               id="path27014"
               d="m 117.8,206.3 c -0.5,0.4 -0.9,0.7 -1.3,0.8 -0.4,0.2 -0.9,0.2 -1.4,0.2 -0.8,0 -1.4,-0.2 -1.9,-0.6 -0.4,-0.4 -0.7,-0.9 -0.7,-1.5 0,-0.4 0.1,-0.7 0.2,-1 0.2,-0.3 0.4,-0.5 0.6,-0.7 0.3,-0.2 0.6,-0.3 0.9,-0.4 0.2,-0.1 0.6,-0.1 1.1,-0.2 1,-0.1 1.8,-0.3 2.2,-0.4 0,-0.2 0,-0.3 0,-0.3 0,-0.5 -0.1,-0.9 -0.4,-1.1 -0.3,-0.3 -0.8,-0.4 -1.4,-0.4 -0.6,0 -1,0.1 -1.3,0.3 -0.3,0.2 -0.5,0.6 -0.6,1.1 l -1.2,-0.2 c 0.1,-0.5 0.3,-1 0.6,-1.3 0.3,-0.3 0.6,-0.6 1.1,-0.7 0.5,-0.2 1,-0.3 1.7,-0.3 0.6,0 1.1,0.1 1.5,0.2 0.4,0.1 0.7,0.3 0.9,0.6 0.2,0.3 0.3,0.5 0.4,0.9 0,0.2 0.1,0.6 0.1,1.2 v 1.7 c 0,1.2 0,1.9 0.1,2.2 0.1,0.3 0.2,0.6 0.3,0.9 H 118 c -0.1,-0.3 -0.2,-0.6 -0.2,-1 z m -4.2,-7.6 c 0,-0.5 0.1,-0.9 0.4,-1.2 0.3,-0.3 0.6,-0.4 1,-0.4 0.3,0 0.7,0.1 1.2,0.4 0.3,0.1 0.5,0.2 0.7,0.2 0.1,0 0.3,0 0.3,-0.1 0.1,-0.1 0.1,-0.2 0.2,-0.5 h 0.9 c 0,0.5 -0.1,0.9 -0.4,1.2 -0.3,0.3 -0.6,0.4 -1,0.4 -0.3,0 -0.7,-0.1 -1.2,-0.4 -0.3,-0.2 -0.5,-0.3 -0.7,-0.3 -0.2,0 -0.3,0.1 -0.4,0.2 -0.1,0.1 -0.2,0.3 -0.1,0.5 z m 4.1,4.8 c -0.5,0.2 -1.1,0.3 -2.1,0.5 -0.5,0.1 -0.9,0.2 -1.1,0.3 -0.2,0.1 -0.4,0.2 -0.5,0.4 -0.1,0.2 -0.2,0.4 -0.2,0.6 0,0.3 0.1,0.6 0.4,0.8 0.3,0.2 0.6,0.3 1.1,0.3 0.5,0 0.9,-0.1 1.3,-0.3 0.4,-0.2 0.7,-0.5 0.8,-0.9 0.1,-0.3 0.2,-0.7 0.2,-1.3 v -0.4 z"
               class="st1"
               inkscape:connector-curvature="0"
               style="fill:#ffffff" />
          </g>
          <g
             id="g27016">
            <path
               id="path27018"
               d="m 120.4,203.5 c 0,-1.4 0.4,-2.4 1.1,-3.1 0.6,-0.5 1.4,-0.8 2.3,-0.8 1,0 1.9,0.3 2.5,1 0.6,0.7 1,1.6 1,2.8 0,1 -0.1,1.7 -0.4,2.3 -0.3,0.5 -0.7,1 -1.2,1.3 -0.5,0.3 -1.1,0.5 -1.8,0.5 -1,0 -1.9,-0.3 -2.5,-1 -0.7,-0.8 -1,-1.7 -1,-3 z m 1.3,0 c 0,0.9 0.2,1.7 0.6,2.1 0.4,0.5 0.9,0.7 1.6,0.7 0.6,0 1.1,-0.2 1.6,-0.7 0.4,-0.5 0.6,-1.2 0.6,-2.2 0,-0.9 -0.2,-1.6 -0.6,-2.1 -0.4,-0.5 -0.9,-0.7 -1.6,-0.7 -0.6,0 -1.1,0.2 -1.6,0.7 -0.4,0.6 -0.6,1.3 -0.6,2.2 z"
               class="st1"
               inkscape:connector-curvature="0"
               style="fill:#ffffff" />
          </g>
          <g
             id="g27020">
            <path
               id="path27022"
               d="m 137.6,207.2 v -0.9 c -0.5,0.7 -1.2,1.1 -2.1,1.1 -0.6,0 -1.1,-0.2 -1.6,-0.5 -0.5,-0.3 -0.9,-0.8 -1.2,-1.4 -0.3,-0.6 -0.4,-1.3 -0.4,-2 0,-0.7 0.1,-1.4 0.4,-2 0.2,-0.6 0.6,-1.1 1.1,-1.4 0.5,-0.3 1,-0.5 1.7,-0.5 0.4,0 0.8,0.1 1.2,0.3 0.3,0.2 0.6,0.4 0.9,0.7 V 197 h 1.2 v 10.2 z m -3.9,-3.7 c 0,0.9 0.2,1.7 0.6,2.1 0.4,0.5 0.9,0.7 1.4,0.7 0.5,0 1,-0.2 1.4,-0.7 0.4,-0.4 0.6,-1.1 0.6,-2.1 0,-1 -0.2,-1.8 -0.6,-2.2 -0.4,-0.5 -0.9,-0.7 -1.4,-0.7 -0.6,0 -1,0.2 -1.4,0.7 -0.5,0.5 -0.6,1.2 -0.6,2.2 z"
               class="st1"
               inkscape:connector-curvature="0"
               style="fill:#ffffff" />
          </g>
          <g
             id="g27024">
            <path
               id="path27026"
               d="m 145.9,204.8 1.3,0.2 c -0.2,0.8 -0.6,1.3 -1.1,1.8 -0.6,0.4 -1.3,0.6 -2.1,0.6 -1.1,0 -1.9,-0.3 -2.6,-1 -0.6,-0.7 -1,-1.6 -1,-2.8 0,-1.2 0.3,-2.2 1,-2.9 0.6,-0.7 1.5,-1 2.5,-1 1,0 1.8,0.3 2.4,1 0.6,0.7 0.9,1.6 0.9,2.8 0,0.1 0,0.2 0,0.3 h -5.5 c 0,0.8 0.3,1.4 0.7,1.9 0.4,0.4 0.9,0.6 1.6,0.6 0.5,0 0.9,-0.1 1.2,-0.4 0.2,-0.1 0.5,-0.5 0.7,-1.1 z m -4.2,-2 h 4.1 c -0.1,-0.6 -0.2,-1.1 -0.5,-1.4 -0.4,-0.5 -0.9,-0.7 -1.6,-0.7 -0.6,0 -1.1,0.2 -1.5,0.6 -0.2,0.3 -0.4,0.9 -0.5,1.5 z"
               class="st1"
               inkscape:connector-curvature="0"
               style="fill:#ffffff" />
          </g>
          <g
             id="g27028">
            <path
               id="path27030"
               d="m 152.4,203.9 1.3,-0.1 c 0.1,0.5 0.2,0.9 0.4,1.3 0.2,0.3 0.6,0.6 1,0.8 0.5,0.2 1,0.3 1.6,0.3 0.5,0 1,-0.1 1.4,-0.2 0.4,-0.2 0.7,-0.4 0.9,-0.6 0.2,-0.3 0.3,-0.6 0.3,-0.9 0,-0.3 -0.1,-0.6 -0.3,-0.8 -0.2,-0.2 -0.5,-0.4 -0.9,-0.6 -0.3,-0.1 -0.9,-0.3 -1.8,-0.5 -0.9,-0.2 -1.6,-0.4 -2,-0.6 -0.5,-0.3 -0.9,-0.6 -1.1,-1 -0.2,-0.4 -0.4,-0.8 -0.4,-1.3 0,-0.5 0.1,-1 0.4,-1.4 0.3,-0.4 0.7,-0.8 1.3,-1 0.6,-0.2 1.2,-0.3 1.9,-0.3 0.8,0 1.4,0.1 2,0.4 0.6,0.2 1,0.6 1.3,1.1 0.3,0.5 0.5,1 0.5,1.6 l -1.3,0.1 c -0.1,-0.6 -0.3,-1.1 -0.7,-1.5 -0.4,-0.3 -1,-0.5 -1.8,-0.5 -0.8,0 -1.4,0.2 -1.8,0.5 -0.4,0.3 -0.6,0.7 -0.6,1.1 0,0.4 0.1,0.7 0.4,0.9 0.3,0.2 0.9,0.5 2,0.7 1.1,0.2 1.9,0.5 2.3,0.7 0.6,0.3 1,0.6 1.3,1 0.3,0.4 0.4,0.9 0.4,1.5 0,0.5 -0.2,1.1 -0.5,1.5 -0.3,0.5 -0.8,0.9 -1.3,1.1 -0.6,0.3 -1.2,0.4 -2,0.4 -0.9,0 -1.7,-0.1 -2.3,-0.4 -0.6,-0.3 -1.1,-0.7 -1.5,-1.2 -0.2,-0.8 -0.4,-1.4 -0.4,-2.1 z"
               class="st1"
               inkscape:connector-curvature="0"
               style="fill:#ffffff" />
          </g>
          <g
             id="g27032">
            <path
               id="path27034"
               d="m 161.8,203.5 c 0,-1.4 0.4,-2.4 1.1,-3.1 0.6,-0.5 1.4,-0.8 2.3,-0.8 1,0 1.9,0.3 2.5,1 0.6,0.7 1,1.6 1,2.8 0,1 -0.1,1.7 -0.4,2.3 -0.3,0.5 -0.7,1 -1.2,1.3 -0.5,0.3 -1.1,0.5 -1.8,0.5 -1,0 -1.9,-0.3 -2.5,-1 -0.7,-0.8 -1,-1.7 -1,-3 z m 1.3,0 c 0,0.9 0.2,1.7 0.6,2.1 0.4,0.5 0.9,0.7 1.6,0.7 0.6,0 1.1,-0.2 1.6,-0.7 0.4,-0.5 0.6,-1.2 0.6,-2.2 0,-0.9 -0.2,-1.6 -0.6,-2.1 -0.4,-0.5 -0.9,-0.7 -1.6,-0.7 -0.6,0 -1.1,0.2 -1.6,0.7 -0.4,0.6 -0.6,1.3 -0.6,2.2 z"
               class="st1"
               inkscape:connector-curvature="0"
               style="fill:#ffffff" />
          </g>
          <g
             id="g27036">
            <path
               id="path27038"
               d="m 170.5,207.2 v -6.4 h -1.1 v -1 h 1.1 V 199 c 0,-0.5 0,-0.9 0.1,-1.1 0.1,-0.3 0.3,-0.6 0.6,-0.8 0.3,-0.2 0.7,-0.3 1.3,-0.3 0.4,0 0.7,0 1.2,0.1 l -0.2,1.1 c -0.3,0 -0.5,-0.1 -0.7,-0.1 -0.4,0 -0.7,0.1 -0.8,0.2 -0.2,0.2 -0.2,0.5 -0.2,0.9 v 0.7 h 1.4 v 1 h -1.4 v 6.4 h -1.3 z"
               class="st1"
               inkscape:connector-curvature="0"
               style="fill:#ffffff" />
          </g>
          <g
             id="g27040">
            <path
               id="path27042"
               d="m 176.9,206.1 0.2,1.1 c -0.4,0.1 -0.7,0.1 -0.9,0.1 -0.5,0 -0.8,-0.1 -1.1,-0.2 -0.3,-0.1 -0.4,-0.3 -0.5,-0.6 -0.1,-0.2 -0.2,-0.7 -0.2,-1.5 v -4.3 h -0.9 v -1 h 0.9 V 198 l 1.2,-0.8 v 2.6 h 1.3 v 1 h -1.3 v 4.3 c 0,0.4 0,0.6 0.1,0.7 0,0.1 0.1,0.2 0.2,0.2 0.1,0.1 0.2,0.1 0.4,0.1 0.2,0.1 0.4,0 0.6,0 z"
               class="st1"
               inkscape:connector-curvature="0"
               style="fill:#ffffff" />
          </g>
          <g
             id="g27044">
            <path
               id="path27046"
               d="m 179.5,207.2 -2.3,-7.4 h 1.3 l 1.2,4.3 0.4,1.6 c 0,-0.1 0.1,-0.6 0.4,-1.5 l 1.2,-4.3 h 1.3 l 1.1,4.3 0.4,1.4 0.4,-1.4 1.3,-4.3 h 1.2 l -2.3,7.4 h -1.3 l -1.2,-4.4 -0.3,-1.3 -1.5,5.7 h -1.3 z"
               class="st1"
               inkscape:connector-curvature="0"
               style="fill:#ffffff" />
          </g>
          <g
             id="g27048">
            <path
               id="path27050"
               d="m 193.3,206.3 c -0.5,0.4 -0.9,0.7 -1.3,0.8 -0.4,0.2 -0.9,0.2 -1.4,0.2 -0.8,0 -1.4,-0.2 -1.9,-0.6 -0.4,-0.4 -0.7,-0.9 -0.7,-1.5 0,-0.4 0.1,-0.7 0.2,-1 0.2,-0.3 0.4,-0.5 0.6,-0.7 0.3,-0.2 0.6,-0.3 0.9,-0.4 0.2,-0.1 0.6,-0.1 1.1,-0.2 1,-0.1 1.8,-0.3 2.2,-0.4 0,-0.2 0,-0.3 0,-0.3 0,-0.5 -0.1,-0.9 -0.4,-1.1 -0.3,-0.3 -0.8,-0.4 -1.4,-0.4 -0.6,0 -1,0.1 -1.3,0.3 -0.3,0.2 -0.5,0.6 -0.6,1.1 l -1.2,-0.2 c 0.1,-0.5 0.3,-1 0.6,-1.3 0.3,-0.3 0.6,-0.6 1.1,-0.7 0.5,-0.2 1,-0.3 1.7,-0.3 0.6,0 1.1,0.1 1.5,0.2 0.4,0.1 0.7,0.3 0.9,0.6 0.2,0.2 0.3,0.5 0.4,0.9 0,0.2 0.1,0.6 0.1,1.2 v 1.7 c 0,1.2 0,1.9 0.1,2.2 0.1,0.3 0.2,0.6 0.3,0.9 h -1.3 c -0.1,-0.3 -0.2,-0.6 -0.2,-1 z m -0.1,-2.8 c -0.5,0.2 -1.1,0.3 -2.1,0.5 -0.5,0.1 -0.9,0.2 -1.1,0.3 -0.2,0.1 -0.4,0.2 -0.5,0.4 -0.1,0.2 -0.2,0.4 -0.2,0.6 0,0.3 0.1,0.6 0.4,0.8 0.3,0.2 0.6,0.3 1.1,0.3 0.5,0 0.9,-0.1 1.3,-0.3 0.4,-0.2 0.7,-0.5 0.8,-0.9 0.1,-0.3 0.2,-0.7 0.2,-1.3 v -0.4 z"
               class="st1"
               inkscape:connector-curvature="0"
               style="fill:#ffffff" />
          </g>
          <g
             id="g27052">
            <path
               id="path27054"
               d="m 196.4,207.2 v -7.4 h 1.1 v 1.1 c 0.3,-0.5 0.6,-0.9 0.8,-1 0.2,-0.2 0.5,-0.3 0.8,-0.3 0.4,0 0.9,0.1 1.3,0.4 l -0.4,1.2 c -0.3,-0.2 -0.6,-0.3 -0.9,-0.3 -0.3,0 -0.5,0.1 -0.7,0.2 -0.2,0.2 -0.4,0.4 -0.5,0.7 -0.1,0.4 -0.2,0.9 -0.2,1.5 v 3.9 z"
               class="st1"
               inkscape:connector-curvature="0"
               style="fill:#ffffff" />
          </g>
          <g
             id="g27056">
            <path
               id="path27058"
               d="m 206.3,204.8 1.3,0.2 c -0.2,0.8 -0.6,1.3 -1.1,1.8 -0.6,0.4 -1.3,0.6 -2.1,0.6 -1.1,0 -1.9,-0.3 -2.6,-1 -0.6,-0.7 -1,-1.6 -1,-2.8 0,-1.2 0.3,-2.2 1,-2.9 0.6,-0.7 1.5,-1 2.5,-1 1,0 1.8,0.3 2.4,1 0.6,0.7 0.9,1.6 0.9,2.8 0,0.1 0,0.2 0,0.3 h -5.5 c 0,0.8 0.3,1.4 0.7,1.9 0.4,0.4 0.9,0.6 1.6,0.6 0.5,0 0.9,-0.1 1.2,-0.4 0.2,-0.1 0.5,-0.5 0.7,-1.1 z m -4.2,-2 h 4.1 c -0.1,-0.6 -0.2,-1.1 -0.5,-1.4 -0.4,-0.5 -0.9,-0.7 -1.6,-0.7 -0.6,0 -1.1,0.2 -1.5,0.6 -0.2,0.3 -0.4,0.9 -0.5,1.5 z"
               class="st1"
               inkscape:connector-curvature="0"
               style="fill:#ffffff" />
          </g>
          <g
             id="g27060">
            <path
               id="path27062"
               d="M 213.2,207.2 V 197 h 1.4 v 9 h 5 v 1.2 z"
               class="st1"
               inkscape:connector-curvature="0"
               style="fill:#ffffff" />
          </g>
          <g
             id="g27064">
            <path
               id="path27066"
               d="M 221.1,198.4 V 197 h 1.3 v 1.4 z m 0,8.8 v -7.4 h 1.3 v 7.4 z"
               class="st1"
               inkscape:connector-curvature="0"
               style="fill:#ffffff" />
          </g>
          <g
             id="g27068">
            <path
               id="path27070"
               d="m 226.3,207.2 -2.8,-7.4 h 1.3 l 1.6,4.4 c 0.2,0.5 0.3,1 0.5,1.5 0.1,-0.4 0.3,-0.9 0.5,-1.4 l 1.6,-4.5 h 1.3 l -2.8,7.4 z"
               class="st1"
               inkscape:connector-curvature="0"
               style="fill:#ffffff" />
          </g>
          <g
             id="g27072">
            <path
               id="path27074"
               d="m 231.4,207.2 v -7.4 h 1.1 v 1.1 c 0.3,-0.5 0.6,-0.9 0.8,-1 0.2,-0.2 0.5,-0.3 0.8,-0.3 0.4,0 0.9,0.1 1.3,0.4 l -0.4,1.2 c -0.3,-0.2 -0.6,-0.3 -0.9,-0.3 -0.3,0 -0.5,0.1 -0.7,0.2 -0.2,0.2 -0.4,0.4 -0.5,0.7 -0.1,0.4 -0.2,0.9 -0.2,1.5 v 3.9 z"
               class="st1"
               inkscape:connector-curvature="0"
               style="fill:#ffffff" />
          </g>
          <g
             id="g27076">
            <path
               id="path27078"
               d="m 241.2,204.8 1.3,0.2 c -0.2,0.8 -0.6,1.3 -1.1,1.8 -0.6,0.4 -1.3,0.6 -2.1,0.6 -1.1,0 -1.9,-0.3 -2.6,-1 -0.6,-0.7 -1,-1.6 -1,-2.8 0,-1.2 0.3,-2.2 1,-2.9 0.6,-0.7 1.5,-1 2.5,-1 1,0 1.8,0.3 2.4,1 0.6,0.7 0.9,1.6 0.9,2.8 0,0.1 0,0.2 0,0.3 H 237 c 0,0.8 0.3,1.4 0.7,1.9 0.4,0.4 0.9,0.6 1.6,0.6 0.5,0 0.9,-0.1 1.2,-0.4 0.3,-0.1 0.5,-0.5 0.7,-1.1 z m -4.1,-2 h 4.1 c -0.1,-0.6 -0.2,-1.1 -0.5,-1.4 -0.4,-0.5 -0.9,-0.7 -1.6,-0.7 -0.6,0 -1.1,0.2 -1.5,0.6 -0.2,0.3 -0.5,0.9 -0.5,1.5 z"
               class="st1"
               inkscape:connector-curvature="0"
               style="fill:#ffffff" />
          </g>
        </g>
        <g
           id="g27080"
           transform="matrix(1.2178779,0,0,1.2178779,9.985738,317.19702)" />
        <g
           id="g27106"
           transform="matrix(1.2178779,0,0,1.2178779,9.985738,317.19702)">
          <path
             d="M 60.299999,219.8 H 362.89999"
             id="line27108"
             inkscape:connector-curvature="0" />
          <path
             style="fill:#ffffff;stroke-width:0.99000478"
             d="M 53.924453,218.8 H 350.50564 v 2 H 53.924453 Z"
             id="rect27110"
             inkscape:connector-curvature="0" />
        </g>
        <g
           id="g64289"
           transform="matrix(0.84054661,0,0,0.84054661,-326.27832,-198.63428)">
          <path
             style="color:#000000;display:inline;overflow:visible;visibility:visible;opacity:0.56734691;fill:#ffffff;fill-opacity:1;fill-rule:nonzero;stroke:none;stroke-width:1px;marker:none;filter:url(#filter14506-80-6-61);enable-background:accumulate"
             d="m -1358.6983,-1122.7245 c 0,0 0.7308,-3.0048 4.5476,-3.0048 3.8168,0 6.8216,3.8168 6.8216,3.8168 0,0 -5.6846,-2.4362 -7.7149,-2.4362 -2.0302,0 -3.6543,1.6242 -3.6543,1.6242 z"
             id="path20199"
             inkscape:connector-curvature="0"
             transform="matrix(0.80201649,0,0,0.80201649,1926.4315,1753.3757)" />
          <path
             style="color:#000000;display:inline;overflow:visible;visibility:visible;fill:#ffffff;fill-opacity:1;fill-rule:nonzero;stroke:#0055d4;stroke-width:5.43439388;stroke-opacity:1;marker:none;enable-background:accumulate"
             d="m 877.13261,799.06836 a 44.300766,44.300766 0 0 1 -44.30076,44.30077 44.300766,44.300766 0 0 1 -44.30077,-44.30077 44.300766,44.300766 0 0 1 44.30077,-44.30077 44.300766,44.300766 0 0 1 44.30076,44.30077 z"
             id="path20221"
             inkscape:connector-curvature="0" />
          <path
             style="color:#000000;display:inline;overflow:visible;visibility:visible;fill:#0055d4;fill-opacity:1;fill-rule:nonzero;stroke:none;stroke-width:1;marker:none;enable-background:accumulate"
             d="m 879.65207,799.06842 a 46.820286,46.820286 0 0 1 -46.82028,46.82029 46.820286,46.820286 0 0 1 -46.82029,-46.82029 46.820286,46.820286 0 0 1 46.82029,-46.82029 46.820286,46.820286 0 0 1 46.82028,46.82029 z"
             id="path20223"
             inkscape:connector-curvature="0" />
          <path
             style="color:#000000;display:inline;overflow:visible;visibility:visible;opacity:0.4820717;fill:url(#radialGradient20235);fill-opacity:1;fill-rule:nonzero;stroke:none;stroke-width:1;marker:none;enable-background:accumulate"
             d="m 879.65207,799.06842 a 46.820286,46.820286 0 0 1 -46.82028,46.82029 46.820286,46.820286 0 0 1 -46.82029,-46.82029 46.820286,46.820286 0 0 1 46.82029,-46.82029 46.820286,46.820286 0 0 1 46.82028,46.82029 z"
             id="path20225"
             inkscape:connector-curvature="0" />
          <path
             transform="matrix(0.52233967,0,0,0.52233967,655.55246,703.17964)"
             style="color:#000000;display:inline;overflow:visible;visibility:visible;fill:url(#radialGradient20237);fill-opacity:1;fill-rule:nonzero;stroke:none;stroke-width:1.35547781;marker:none;filter:url(#filter4645);enable-background:accumulate"
             d="m 407.53088,170.44995 a 68.136078,68.136078 0 0 1 -68.13607,68.13608 68.136078,68.136078 0 0 1 -68.13608,-68.13608 68.136078,68.136078 0 0 1 68.13608,-68.13608 68.136078,68.136078 0 0 1 68.13607,68.13608 z"
             id="path20227"
             inkscape:connector-curvature="0" />
          <path
             sodipodi:nodetypes="cccccccccccccccccccssccccccccscccccccsccc"
             style="font-size:12px;fill:#0055d4;fill-opacity:1;fill-rule:nonzero;stroke:#ff7d23;stroke-width:1.1452688;stroke-opacity:1;filter:url(#filter15293)"
             d="m -1392.4809,-1232.0483 c -0.8019,0.033 -1.509,0.2328 -2.0475,0.6749 -0.2982,2.8855 0.7189,6.5887 2.9222,8.6149 -0.1902,-0.2464 -0.4195,-0.6929 -0.7355,-1.4291 -0.9777,-1.6628 -2.7369,-9.0374 0.656,-5.4787 1.989,4.1785 2.6367,9.2781 5.7252,12.9819 2.3538,3.8651 6.8255,4.1147 10.5955,5.0816 3.2734,1.588 4.3264,6.2894 7.8522,7.2255 2.5104,3.2637 -0.6389,7.349 -2.0078,10.5006 -2.7461,4.8644 2.8883,7.8174 4.6716,11.632 3.6086,4.9811 7.031,11.5771 4.3138,17.8452 -1.6058,4.5347 -1.9956,9.5445 -3.1409,14.2721 -0.5096,3.3536 -1.2328,10.3996 2.3855,11.0564 0.7253,-3.6267 0.4384,-7.5298 3.3595,-10.2624 2.8735,-5.4672 8.4716,-8.8774 12.7226,-12.7436 1.9606,-2.3297 5.7601,-7.6173 9.5221,-10.203 1.6683,-2.8236 1.1693,-7.6219 4.2343,-10.4213 2.348,-2.4836 3.5146,-8.2489 -0.994,-8.9324 -6.0092,-2.3954 -10.9523,-6.9424 -14.9491,-12.0886 -4.3284,-2.3316 -7.0463,-2.9684 -11.6629,-4.4538 -0.281,-0.091 -0.6668,2.4248 -1.5084,2.4164 -1.1507,-0.011 0.2655,-3.2189 -2.2349,-3.1236 -0.4188,1.379 -2.8098,3.5597 -4.453,4.0295 -0.6343,-1.0347 -2.8863,-3.2068 -2.7234,-4.9624 -0.075,-3.5364 -4.592,-3.6234 -2.8626,-6.9872 -1.0331,-2.9637 -5.1833,4.3511 -6.8781,-0.6552 -1.002,-4.349 -1.1763,-11.7175 -5.1885,-12.545 -1.9336,-0.7657 -5.1682,-2.1428 -7.5739,-2.0447 z m 24.8308,12.2251 c 0.3973,0.1244 2.1717,-0.4166 4.1253,-0.3854 1.8411,0.03 4.9133,1.545 5.4703,1.0618 -0.868,-2.878 -6.9897,-2.3488 -6.8746,-2.3354 -0.9249,0.7782 -3.383,1.4105 -2.721,1.659 z m 20.154,5.4712 c -0.1529,0.27 -0.9304,0.3375 -0.9313,-0.2161 0.3055,-0.5351 0.9002,-0.076 0.9313,0.2161 z m -3.6979,-1.0674 c -3.4763,-0.1072 -1.191,-1.878 -3.0367,-1.8379 -1.2939,0.027 -0.927,1.3862 -3.1699,1.1772 2.062,0.9711 2.2009,0.732 3.6375,1.4994 2.0386,-0.1206 3.2905,-0.092 2.5691,-0.8387 z"
             id="path20229"
             inkscape:connector-curvature="0"
             transform="matrix(0.79084698,0,0,0.79084698,1911.5515,1740.0631)" />
          <path
             inkscape:connector-curvature="0"
             id="path20231"
             d="m 810.31213,765.70152 c -0.63419,0.0263 -1.19339,0.18405 -1.61927,0.53375 -0.23585,2.282 0.56853,5.21059 2.31098,6.81301 -0.15035,-0.19482 -0.33168,-0.54797 -0.58166,-1.13017 -0.77323,-1.31503 -2.16443,-7.14723 0.5188,-4.33284 1.57299,3.30456 2.08527,7.33761 4.52776,10.26674 1.86155,3.05667 5.39798,3.25412 8.37947,4.01874 2.58876,1.25589 3.42149,4.97392 6.20988,5.71426 1.98528,2.58107 -0.50531,5.81191 -1.58793,8.30439 -2.17167,3.84701 2.28426,6.18235 3.69457,9.19916 2.85388,3.93921 5.56048,9.15569 3.41154,14.11276 -1.26993,3.58625 -1.57824,7.54828 -2.48398,11.28705 -0.40296,2.65217 -0.97493,8.22451 1.88655,8.74394 0.5736,-2.86818 0.34672,-5.95491 2.65688,-8.11599 2.27248,-4.3237 6.6997,-7.0207 10.0616,-10.07827 1.55061,-1.84244 4.55538,-6.02411 7.53053,-8.06898 1.31938,-2.233 0.92475,-6.02774 3.34867,-8.24162 1.85693,-1.96418 2.77951,-6.52363 -0.78608,-7.06417 -4.75238,-1.89443 -8.66161,-5.49037 -11.82244,-9.56028 -3.42312,-1.84389 -5.57251,-2.34757 -9.22352,-3.52221 -0.22227,-0.0725 -0.52741,1.91762 -1.19294,1.911 -0.91008,-0.009 0.20995,-2.54565 -1.76745,-2.47029 -0.33122,1.0905 -2.22212,2.81511 -3.52167,3.18673 -0.50159,-0.81833 -2.28262,-2.53614 -2.15383,-3.92454 -0.0589,-2.79672 -3.63153,-2.86556 -2.26387,-5.52578 -0.81697,-2.34386 -4.09917,3.44106 -5.43947,-0.51817 -0.79243,-3.43943 -0.93028,-9.26673 -4.10333,-9.92121 -1.52915,-0.60557 -4.0873,-1.69463 -5.98979,-1.61701 z m 19.63736,9.66815 c 0.3142,0.0984 1.71745,-0.32941 3.26245,-0.30478 1.45606,0.0236 3.88568,1.22184 4.32623,0.83971 -0.68645,-2.27602 -5.52777,-1.85757 -5.43675,-1.84697 -0.73147,0.61544 -2.67544,1.1155 -2.15193,1.31204 z m 15.93872,4.32687 c -0.12092,0.21357 -0.73582,0.26692 -0.73654,-0.17091 0.24165,-0.42316 0.71199,-0.0598 0.73654,0.17091 z m -2.92443,-0.84414 c -2.74926,-0.0851 -0.94196,-1.48522 -2.40164,-1.45352 -1.02321,0.0217 -0.7331,1.09629 -2.50689,0.931 1.63078,0.76797 1.74064,0.57894 2.8767,1.18578 1.6122,-0.0954 2.60235,-0.0725 2.03183,-0.66326 z"
             style="font-size:12px;fill:#ccff00;fill-opacity:1;fill-rule:nonzero;stroke:#d4ff2a;stroke-width:0.90573239;stroke-opacity:1"
             sodipodi:nodetypes="cccccccccccccccccccssccccccccscccccccsccc" />
          <path
             sodipodi:nodetypes="cccccccccczczcsczczccccc"
             inkscape:connector-curvature="0"
             id="path20233"
             d="m 847.16792,758.59388 c 3.13845,1.65749 7.34032,4.24345 9.19436,5.91688 2.13544,1.1261 5.62324,4.03105 8.67356,6.32011 0,0 -4.21908,-4.75863 -8.01509,-7.46469 -3.03937,-2.09794 -6.46838,-3.56885 -9.85283,-4.7723 z m 15.59037,8.4177 4.09753,5.0154 3.65237,3.8048 -3.02289,-4.3467 z m -8.13284,-2.24205 c -5.11467,-3.20856 -14.27779,-7.52927 -14.27779,-7.52927 0,0 4.48012,4.83652 6.16578,10.75349 1.68574,5.91706 -0.50776,10.42226 -0.50776,10.42226 0,0 6.68603,1.226 14.82331,6.56077 8.2456,5.40568 12.87127,16.5816 12.87127,16.5816 0,0 0.47179,-6.27365 -2.05212,-15.21848 -2.52382,-8.94483 -6.00491,-13.65871 -6.00491,-13.65871 0,0 -5.90311,-4.7032 -11.01778,-7.91166 z m 12.99916,9.48664 c 1.84099,3.30058 4.12651,6.80395 4.86188,9.64414 1.58956,2.65326 2.90703,7.14542 4.23611,12.25936 0,0 -0.17291,-9.44778 -2.35038,-13.19679 -2.22674,-3.62021 -6.74761,-8.70671 -6.74761,-8.70671 z"
             style="opacity:0.87980772;fill:url(#linearGradient741);fill-opacity:1;stroke:none" />
        </g>
      </g>
    </g>
  </g>
  <g
     inkscape:groupmode="layer"
     id="layer3"
     inkscape:label="Sombra"
     style="filter:url(#filter5204)">
    <path
       transform="matrix(0.48831743,0,0,0.48831743,0.27468075,0.63932623)"
       style="display:inline;fill:#666666;filter:url(#filter31850)"
       id="path31666"
       d="m 237.24175,0.95780059 c 0,0 -108.14756,30.20337041 -165.022457,81.71960741 C 20.824848,129.32214 2.1913179,179.74229 2.1913179,179.74229 L -0.24443214,2.4192606 Z"
       class="st422"
       inkscape:connector-curvature="0" />
  </g>
  <g
     inkscape:label="Arte"
     inkscape:groupmode="layer"
     id="layer1"
     transform="translate(0,-32.41665)">
    <path
       inkscape:connector-curvature="0"
       class="st422"
       d="m 115.63197,32.539673 c 0,0 -52.810356,14.748833 -80.583363,39.905119 C 9.9518106,95.222226 0.85272559,119.84327 0.85272559,119.84327 l -1.1894145,-86.589942 z"
       id="path27117"
       style="fill:url(#SVGID_7_-6);stroke-width:0.48831728" />
    <g
       id="g27125-6"
       transform="matrix(0.5947111,0,0,0.5947111,2.4011343,37.635774)"
       style="display:inline;fill:#808080;filter:url(#filter32021)">
      <g
         id="g27127-6"
         style="fill:#808080">
        <path
           id="path27129-7"
           d="m 26.1,65.8 c 2.2,-2.7 3.3,-4 5.5,-6.6 0.8,0.9 1.3,1.3 2.1,2.2 -3.3,3.7 -4.9,5.7 -8,9.6 -5.6,-5.7 -8.4,-8.5 -14,-14.2 1,-1.3 1.5,-2 2.5,-3.2 4.9,4.9 7.2,7.3 11.9,12.2 z"
           class="st1"
           inkscape:connector-curvature="0"
           style="fill:#808080" />
        <path
           id="path27131-6"
           d="m 37.4,57.5 c -1.1,1.2 -1.6,1.7 -2.7,2.9 -5.5,-5.8 -8.2,-8.8 -13.6,-14.6 1.1,-1.2 1.7,-1.8 2.8,-3 5.4,5.8 8.1,8.8 13.5,14.7 z"
           class="st1"
           inkscape:connector-curvature="0"
           style="fill:#808080" />
        <path
           id="path27133-2"
           d="m 24.6,42.1 c 0.9,-1 1.4,-1.4 2.3,-2.4 0.2,-0.3 0.5,-0.4 0.8,-0.4 0.3,0 0.5,0 0.8,0.1 4.7,2.2 7.1,3.3 11.8,5.6 0.4,0.2 0.8,0.4 1.2,0.6 0.4,0.3 0.9,0.5 1.3,0.8 -0.5,-1 -0.9,-1.8 -1.2,-2.7 -1.7,-5 -2.6,-7.6 -4.2,-12.6 -0.1,-0.2 -0.1,-0.5 0,-0.8 0.1,-0.3 0.2,-0.5 0.5,-0.8 1,-0.9 1.5,-1.3 2.5,-2.1 2.5,8.4 3.8,12.5 6.5,20.9 -1.1,1 -1.6,1.4 -2.6,2.4 -8,-3.6 -11.9,-5.3 -19.7,-8.6 z"
           class="st1"
           inkscape:connector-curvature="0"
           style="fill:#808080" />
        <path
           id="path27135-6"
           d="m 51.8,33.9 c 2,2.4 3,3.6 5,6 -1.2,1 -1.9,1.5 -3.1,2.5 -5.2,-6.1 -7.8,-9.2 -13,-15.3 2.1,-1.7 3.1,-2.5 5.3,-4.2 1.2,-0.9 2.3,-1.6 3.4,-2 1,-0.4 2,-0.6 2.9,-0.6 0.9,0 1.7,0.2 2.4,0.6 0.7,0.4 1.3,0.9 1.9,1.5 0.4,0.5 0.7,1.1 0.9,1.7 0.2,0.6 0.3,1.2 0.3,1.8 0,0.6 -0.2,1.2 -0.4,1.9 -0.3,0.6 -0.6,1.3 -1.1,1.9 0.6,-0.1 1.2,-0.1 1.8,0.1 3.6,1 5.4,1.6 9.1,2.7 -1.2,0.8 -1.8,1.2 -2.9,2 -0.3,0.2 -0.6,0.3 -0.8,0.4 -0.3,0 -0.6,0 -0.8,-0.1 -3.1,-0.9 -4.6,-1.4 -7.7,-2.3 -0.3,-0.1 -0.5,-0.1 -0.8,-0.1 -0.2,0 -0.5,0.2 -0.8,0.4 -0.8,0.4 -1.1,0.6 -1.6,1.1 z m -1.7,-2.1 c 0.8,-0.6 1.2,-0.9 2,-1.5 0.6,-0.5 1.1,-0.9 1.4,-1.4 0.3,-0.5 0.6,-0.9 0.7,-1.4 0.1,-0.5 0.1,-0.9 0,-1.3 -0.1,-0.4 -0.3,-0.8 -0.7,-1.2 -0.6,-0.8 -1.4,-1.2 -2.4,-1.2 -0.9,0 -2,0.5 -3.2,1.4 -0.8,0.6 -1.2,0.9 -2.1,1.6 1.7,2 2.6,3 4.3,5 z"
           class="st1"
           inkscape:connector-curvature="0"
           style="fill:#808080" />
        <path
           id="path27137-4"
           d="m 67.1,9.2 c 0.7,0.9 1.1,1.4 1.8,2.3 -3.4,1.9 -5.1,2.9 -8.4,5 1.4,1.7 2.1,2.6 3.4,4.4 2.6,-1.6 3.9,-2.4 6.5,-3.9 0.7,0.9 1,1.4 1.7,2.3 -2.6,1.5 -3.9,2.3 -6.5,3.9 1.4,1.8 2.1,2.7 3.5,4.4 3.2,-2 4.8,-3 8.2,-4.8 0.7,0.9 1.1,1.4 1.8,2.4 -4.7,2.6 -7,4 -11.5,7 -5,-6.3 -7.5,-9.4 -12.5,-15.6 4.7,-3.3 7.1,-4.7 12,-7.4 z"
           class="st1"
           inkscape:connector-curvature="0"
           style="fill:#808080" />
      </g>
    </g>
    <g
       id="g27125"
       transform="matrix(0.5947111,0,0,0.5947111,1.5359354,37.191627)">
      <g
         id="g27127">
        <path
           id="path27129"
           d="m 26.1,65.8 c 2.2,-2.7 3.3,-4 5.5,-6.6 0.8,0.9 1.3,1.3 2.1,2.2 -3.3,3.7 -4.9,5.7 -8,9.6 -5.6,-5.7 -8.4,-8.5 -14,-14.2 1,-1.3 1.5,-2 2.5,-3.2 4.9,4.9 7.2,7.3 11.9,12.2 z"
           class="st1"
           inkscape:connector-curvature="0"
           style="fill:#ffffff" />
        <path
           id="path27131"
           d="m 37.4,57.5 c -1.1,1.2 -1.6,1.7 -2.7,2.9 -5.5,-5.8 -8.2,-8.8 -13.6,-14.6 1.1,-1.2 1.7,-1.8 2.8,-3 5.4,5.8 8.1,8.8 13.5,14.7 z"
           class="st1"
           inkscape:connector-curvature="0"
           style="fill:#ffffff" />
        <path
           id="path27133"
           d="m 24.6,42.1 c 0.9,-1 1.4,-1.4 2.3,-2.4 0.2,-0.3 0.5,-0.4 0.8,-0.4 0.3,0 0.5,0 0.8,0.1 4.7,2.2 7.1,3.3 11.8,5.6 0.4,0.2 0.8,0.4 1.2,0.6 0.4,0.3 0.9,0.5 1.3,0.8 -0.5,-1 -0.9,-1.8 -1.2,-2.7 -1.7,-5 -2.6,-7.6 -4.2,-12.6 -0.1,-0.2 -0.1,-0.5 0,-0.8 0.1,-0.3 0.2,-0.5 0.5,-0.8 1,-0.9 1.5,-1.3 2.5,-2.1 2.5,8.4 3.8,12.5 6.5,20.9 -1.1,1 -1.6,1.4 -2.6,2.4 -8,-3.6 -11.9,-5.3 -19.7,-8.6 z"
           class="st1"
           inkscape:connector-curvature="0"
           style="fill:#ffffff" />
        <path
           id="path27135"
           d="m 51.8,33.9 c 2,2.4 3,3.6 5,6 -1.2,1 -1.9,1.5 -3.1,2.5 -5.2,-6.1 -7.8,-9.2 -13,-15.3 2.1,-1.7 3.1,-2.5 5.3,-4.2 1.2,-0.9 2.3,-1.6 3.4,-2 1,-0.4 2,-0.6 2.9,-0.6 0.9,0 1.7,0.2 2.4,0.6 0.7,0.4 1.3,0.9 1.9,1.5 0.4,0.5 0.7,1.1 0.9,1.7 0.2,0.6 0.3,1.2 0.3,1.8 0,0.6 -0.2,1.2 -0.4,1.9 -0.3,0.6 -0.6,1.3 -1.1,1.9 0.6,-0.1 1.2,-0.1 1.8,0.1 3.6,1 5.4,1.6 9.1,2.7 -1.2,0.8 -1.8,1.2 -2.9,2 -0.3,0.2 -0.6,0.3 -0.8,0.4 -0.3,0 -0.6,0 -0.8,-0.1 -3.1,-0.9 -4.6,-1.4 -7.7,-2.3 -0.3,-0.1 -0.5,-0.1 -0.8,-0.1 -0.2,0 -0.5,0.2 -0.8,0.4 -0.8,0.4 -1.1,0.6 -1.6,1.1 z m -1.7,-2.1 c 0.8,-0.6 1.2,-0.9 2,-1.5 0.6,-0.5 1.1,-0.9 1.4,-1.4 0.3,-0.5 0.6,-0.9 0.7,-1.4 0.1,-0.5 0.1,-0.9 0,-1.3 -0.1,-0.4 -0.3,-0.8 -0.7,-1.2 -0.6,-0.8 -1.4,-1.2 -2.4,-1.2 -0.9,0 -2,0.5 -3.2,1.4 -0.8,0.6 -1.2,0.9 -2.1,1.6 1.7,2 2.6,3 4.3,5 z"
           class="st1"
           inkscape:connector-curvature="0"
           style="fill:#ffffff" />
        <path
           id="path27137"
           d="m 67.1,9.2 c 0.7,0.9 1.1,1.4 1.8,2.3 -3.4,1.9 -5.1,2.9 -8.4,5 1.4,1.7 2.1,2.6 3.4,4.4 2.6,-1.6 3.9,-2.4 6.5,-3.9 0.7,0.9 1,1.4 1.7,2.3 -2.6,1.5 -3.9,2.3 -6.5,3.9 1.4,1.8 2.1,2.7 3.5,4.4 3.2,-2 4.8,-3 8.2,-4.8 0.7,0.9 1.1,1.4 1.8,2.4 -4.7,2.6 -7,4 -11.5,7 -5,-6.3 -7.5,-9.4 -12.5,-15.6 4.7,-3.3 7.1,-4.7 12,-7.4 z"
           class="st1"
           inkscape:connector-curvature="0"
           style="fill:#ffffff" />
      </g>
    </g>
    <g
       style="fill:#ffcc00"
       id="g826"
       transform="matrix(0.99041786,0,0,0.99041786,-45.409665,-5.4914762)">
      <text
         id="text4258"
         y="233.74591"
         x="129.88329"
         style="font-style:normal;font-weight:normal;font-size:24.78880882px;line-height:1.25;font-family:sans-serif;letter-spacing:0px;word-spacing:0px;fill:#ffffff;fill-opacity:1;stroke:none;stroke-width:0.61972016"
         xml:space="preserve"><tspan
           style="font-style:normal;font-variant:normal;font-weight:300;font-stretch:normal;font-size:24.78863525px;font-family:Lato;-inkscape-font-specification:'Lato, weight=250';font-variant-ligatures:normal;font-variant-caps:normal;font-variant-numeric:normal;font-feature-settings:normal;text-align:start;writing-mode:lr-tb;text-anchor:start;fill:#ffffff;stroke-width:0.61972016"
           y="233.74591"
           x="129.88329"
           id="tspan4256"
           sodipodi:role="line">25</tspan></text>
      <text
         xml:space="preserve"
         style="font-style:normal;font-weight:normal;font-size:24.78880882px;line-height:1.25;font-family:sans-serif;letter-spacing:0px;word-spacing:0px;fill:#ffffff;fill-opacity:1;stroke:none;stroke-width:0.61972016"
         x="161.38486"
         y="233.74591"
         id="text4262"><tspan
           sodipodi:role="line"
           id="tspan4260"
           x="161.38486"
           y="233.74591"
           style="font-style:normal;font-variant:normal;font-weight:bold;font-stretch:normal;font-family:Lato;-inkscape-font-specification:'Lato Bold';fill:#ffffff;stroke-width:0.61972016">ABRIL</tspan></text>
    </g>
    <text
       id="text4266"
       y="238.70709"
       x="132.09119"
       style="font-style:normal;font-weight:normal;font-size:8.9214325px;line-height:1.25;font-family:sans-serif;text-align:center;letter-spacing:0px;word-spacing:0px;text-anchor:middle;fill:#ffffff;fill-opacity:1;stroke:none;stroke-width:0.22303575"
       xml:space="preserve"><tspan
         style="font-style:normal;font-variant:normal;font-weight:normal;font-stretch:normal;font-size:9.17222309px;font-family:Lato;-inkscape-font-specification:Lato;text-align:center;text-anchor:middle;fill:#ffffff;stroke-width:0.22303575"
         y="238.70709"
         x="132.09119"
         id="tspan4264"
         sodipodi:role="line">IFPA CAMPUS BRAGANÇA</tspan><tspan
         id="tspan330"
         style="font-style:normal;font-variant:normal;font-weight:normal;font-stretch:normal;font-size:8.46666622px;font-family:Lato;-inkscape-font-specification:Lato;text-align:center;text-anchor:middle;fill:#ffffff;stroke-width:0.22303575"
         y="249.85889"
         x="132.09119"
         sodipodi:role="line">Av. dos Bragantinos, s/nº, Vila Sinhá</tspan></text>
    <path
       inkscape:connector-curvature="0"
       style="color:#000000;font-style:normal;font-variant:normal;font-weight:normal;font-stretch:normal;font-size:medium;line-height:normal;font-family:sans-serif;font-variant-ligatures:normal;font-variant-position:normal;font-variant-caps:normal;font-variant-numeric:normal;font-variant-alternates:normal;font-feature-settings:normal;text-indent:0;text-align:start;text-decoration:none;text-decoration-line:none;text-decoration-style:solid;text-decoration-color:#000000;letter-spacing:normal;word-spacing:normal;text-transform:none;writing-mode:lr-tb;direction:ltr;text-orientation:mixed;dominant-baseline:auto;baseline-shift:baseline;text-anchor:start;white-space:normal;shape-padding:0;clip-rule:nonzero;display:inline;overflow:visible;visibility:visible;opacity:1;isolation:auto;mix-blend-mode:normal;color-interpolation:sRGB;color-interpolation-filters:linearRGB;solid-color:#000000;solid-opacity:1;vector-effect:none;fill:#ffffff;fill-opacity:1;fill-rule:nonzero;stroke:none;stroke-width:1.6739521;stroke-linecap:butt;stroke-linejoin:miter;stroke-miterlimit:4;stroke-dasharray:none;stroke-dashoffset:0;stroke-opacity:1;color-rendering:auto;image-rendering:auto;shape-rendering:auto;text-rendering:auto;enable-background:accumulate"
       d="m 54.791669,207.38923 v 0.91799 47.98614 H 209.79166 v -48.90413 h -8.19003 v 1.83518 h 6.66234 v 45.2313 H 56.315969 v -45.2313 h 6.169585 v -1.83518 z"
       id="rect4268" />
    <text
       id="text328"
       y="286.84375"
       x="258.60138"
       style="font-style:normal;font-weight:normal;font-size:10.58333302px;line-height:1.25;font-family:sans-serif;letter-spacing:0px;word-spacing:0px;fill:#000000;fill-opacity:1;stroke:none;stroke-width:0.26458332"
       xml:space="preserve"><tspan
         style="stroke-width:0.26458332"
         y="296.20752"
         x="258.60138"
         id="tspan326"
         sodipodi:role="line" /></text>
    <g
       id="g5212"
       transform="translate(0,-9.5250005)">
      <g
         id="g336"
         transform="translate(-0.16110324)">
        <text
           xml:space="preserve"
           style="font-style:normal;font-weight:normal;font-size:11.22219276px;line-height:1.25;font-family:sans-serif;letter-spacing:0px;word-spacing:0px;fill:#ffffff;fill-opacity:1;stroke:none;stroke-width:0.2805548"
           x="65.539482"
           y="286.00015"
           id="text4266-0"><tspan
             sodipodi:role="line"
             id="tspan4264-9"
             x="65.539482"
             y="286.00015"
             style="font-style:normal;font-variant:normal;font-weight:normal;font-stretch:normal;font-family:Lato;-inkscape-font-specification:Lato;fill:#ffffff;stroke-width:0.2805548">Informações e inscrição em</tspan></text>
        <text
           id="text5111"
           y="298.98926"
           x="43.223083"
           style="font-style:normal;font-weight:normal;font-size:11.22219276px;line-height:1.25;font-family:sans-serif;letter-spacing:0px;word-spacing:0px;fill:#ffffff;fill-opacity:1;stroke:none;stroke-width:0.2805548"
           xml:space="preserve"><tspan
             style="font-style:normal;font-variant:normal;font-weight:bold;font-stretch:normal;font-size:10.58333302px;font-family:monospace;-inkscape-font-specification:'monospace, Bold';font-variant-ligatures:normal;font-variant-caps:normal;font-variant-numeric:normal;font-feature-settings:normal;text-align:start;writing-mode:lr-tb;text-anchor:start;fill:#ffffff;stroke-width:0.2805548"
             y="298.98926"
             x="43.223083"
             id="tspan5109"
             sodipodi:role="line">flisolbraganca.paralivre.org</tspan></text>
      </g>
      <g
         transform="matrix(0.43417446,0,0,0.43417446,-280.81082,-190.47504)"
         style="enable-background:new"
         id="g319">
        <g
           style="font-style:normal;font-variant:normal;font-weight:normal;font-stretch:normal;font-size:74.36846924px;line-height:125%;font-family:Lato;-inkscape-font-specification:'Lato, Normal';text-align:start;letter-spacing:0px;word-spacing:0px;writing-mode:lr-tb;text-anchor:start;fill:#ffcc00;fill-opacity:1;stroke:none;stroke-width:1px;stroke-linecap:butt;stroke-linejoin:miter;stroke-opacity:1"
           id="text4722"
           transform="matrix(0.93664895,0,0,0.93664895,-4.9307319,68.491082)" />
        <g
           style="font-style:normal;font-weight:normal;font-size:15.49371815px;line-height:125%;font-family:sans-serif;letter-spacing:0px;word-spacing:0px;fill:#ffcc00;fill-opacity:1;stroke:none;stroke-width:1px;stroke-linecap:butt;stroke-linejoin:miter;stroke-opacity:1"
           id="text6214"
           transform="matrix(0.93664895,0,0,0.93664895,-6.6869487,66.734865)" />
      </g>
    </g>
    <text
       xml:space="preserve"
       style="font-style:normal;font-variant:normal;font-weight:normal;font-stretch:normal;font-size:10.58333302px;line-height:125%;font-family:FontAwesome;-inkscape-font-specification:FontAwesome;letter-spacing:0px;word-spacing:0px;fill:#000000;fill-opacity:1;stroke:none;stroke-width:0.26458332px;stroke-linecap:butt;stroke-linejoin:miter;stroke-opacity:1"
       x="310.04453"
       y="171.06203"
       id="text1104"><tspan
         sodipodi:role="line"
         id="tspan1102"
         x="310.04453"
         y="181.45638"
         style="stroke-width:0.26458332px" /></text>
  </g>
  <g
     inkscape:groupmode="layer"
     id="layer4"
     inkscape:label="ananindeua">
    <g
       id="g1089"
       transform="translate(-4.1406498)">
      <text
         id="text4877-6"
         y="148.23882"
         x="170.86671"
         style="font-style:normal;font-variant:normal;font-weight:normal;font-stretch:normal;font-size:17.50214958px;line-height:1.25;font-family:'Intro Light';-inkscape-font-specification:'Intro Light, ';font-variant-ligatures:normal;font-variant-caps:normal;font-variant-numeric:normal;font-feature-settings:normal;text-align:start;letter-spacing:0px;word-spacing:0px;writing-mode:lr-tb;text-anchor:start;fill:#ffffff;fill-opacity:1;stroke:none;stroke-width:0.43755406;enable-background:new"
         xml:space="preserve"><tspan
           style="font-style:normal;font-variant:normal;font-weight:normal;font-stretch:normal;font-size:17.50214958px;font-family:'Intro Light';-inkscape-font-specification:'Intro Light, ';font-variant-ligatures:normal;font-variant-caps:normal;font-variant-numeric:normal;font-feature-settings:normal;text-align:start;writing-mode:lr-tb;text-anchor:start;fill:#ffffff;stroke-width:0.43755406"
           y="148.23882"
           x="170.86671"
           sodipodi:role="line"
           id="tspan4668">2 0 2 0</tspan></text>
      <text
         xml:space="preserve"
         style="font-style:normal;font-variant:normal;font-weight:normal;font-stretch:normal;font-size:18.35191154px;line-height:125%;font-family:FontAwesome;-inkscape-font-specification:FontAwesome;letter-spacing:1.58749998px;word-spacing:0px;display:inline;fill:#ffffff;fill-opacity:1;stroke:none;stroke-width:0.45879775px;stroke-linecap:butt;stroke-linejoin:miter;stroke-opacity:1;enable-background:new"
         x="46.554745"
         y="148.33028"
         id="text1918"
         inkscape:export-xdpi="102.25132"
         inkscape:export-ydpi="102.25132"><tspan
           sodipodi:role="line"
           id="tspan1916"
           x="46.554745"
           y="148.33028"
           style="font-style:normal;font-variant:normal;font-weight:bold;font-stretch:normal;font-size:18.18386078px;font-family:'Intro Bold Caps';-inkscape-font-specification:'Intro Bold Caps, Bold';font-variant-ligatures:normal;font-variant-caps:normal;font-variant-numeric:normal;font-feature-settings:normal;text-align:start;letter-spacing:2.11666656px;writing-mode:lr-tb;text-anchor:start;fill:#ffffff;stroke-width:0.45879775px">BRAGANÇA</tspan></text>
    </g>
  </g>
</svg>
